﻿


EVENT   1
 PAGE   1
  281(1)
  250(bytes(0x04,0x08,0x6f,0x3a,0x0c,0x52,0x50,0x47,0x3a,0x3a,0x53,0x45,0x08,0x3a,0x0a,0x40,0x6e,0x61,0x6d,0x65,0x49,0x22,0x09,0x4d,0x6f,0x76,0x65,0x06,0x3a,0x06,0x45,0x54,0x3a,0x0b,0x40,0x70,0x69,0x74,0x63,0x68,0x69,0x69,0x3a,0x0c,0x40,0x76,0x6f,0x6c,0x75,0x6d,0x65,0x69,0x55))
  TeleportPlayer(0,47,21,10,0,0)
  0()



EVENT   2
 PAGE   1
  281(1)
  250(bytes(0x04,0x08,0x6f,0x3a,0x0c,0x52,0x50,0x47,0x3a,0x3a,0x53,0x45,0x08,0x3a,0x0a,0x40,0x6e,0x61,0x6d,0x65,0x49,0x22,0x09,0x4d,0x6f,0x76,0x65,0x06,0x3a,0x06,0x45,0x54,0x3a,0x0b,0x40,0x70,0x69,0x74,0x63,0x68,0x69,0x69,0x3a,0x0c,0x40,0x76,0x6f,0x6c,0x75,0x6d,0x65,0x69,0x55))
  TeleportPlayer(0,47,36,13,0,0)
  0()



EVENT   3
 PAGE   1
  281(1)
  250(bytes(0x04,0x08,0x6f,0x3a,0x0c,0x52,0x50,0x47,0x3a,0x3a,0x53,0x45,0x08,0x3a,0x0a,0x40,0x6e,0x61,0x6d,0x65,0x49,0x22,0x09,0x4d,0x6f,0x76,0x65,0x06,0x3a,0x06,0x45,0x54,0x3a,0x0b,0x40,0x70,0x69,0x74,0x63,0x68,0x69,0x69,0x3a,0x0c,0x40,0x76,0x6f,0x6c,0x75,0x6d,0x65,0x69,0x55))
  TeleportPlayer(0,47,13,22,0,0)
  0()



EVENT   4
 PAGE   1
  281(1)
  250(bytes(0x04,0x08,0x6f,0x3a,0x0c,0x52,0x50,0x47,0x3a,0x3a,0x53,0x45,0x08,0x3a,0x0a,0x40,0x6e,0x61,0x6d,0x65,0x49,0x22,0x09,0x4d,0x6f,0x76,0x65,0x06,0x3a,0x06,0x45,0x54,0x3a,0x0b,0x40,0x70,0x69,0x74,0x63,0x68,0x69,0x69,0x3a,0x0c,0x40,0x76,0x6f,0x6c,0x75,0x6d,0x65,0x69,0x55))
  TeleportPlayer(0,47,34,23,0,0)
  0()



EVENT   5
 PAGE   1
  281(1)
  250(bytes(0x04,0x08,0x6f,0x3a,0x0c,0x52,0x50,0x47,0x3a,0x3a,0x53,0x45,0x08,0x3a,0x0a,0x40,0x6e,0x61,0x6d,0x65,0x49,0x22,0x09,0x4d,0x6f,0x76,0x65,0x06,0x3a,0x06,0x45,0x54,0x3a,0x0b,0x40,0x70,0x69,0x74,0x63,0x68,0x69,0x69,0x3a,0x0c,0x40,0x76,0x6f,0x6c,0x75,0x6d,0x65,0x69,0x55))
  TeleportPlayer(0,47,19,32,0,0)
  0()



EVENT   6
 PAGE   1
  If(2,"A",1)
   ChangeSelfSwitch("A",0)
   ChangeVariable(1035,1035,1,0,1)
   0()
  EndIf()
  ShowMessageFace(binary"",0,0,2,1)
  ShowMessage("\\n<Investigator>This shop was a tool store, the merchandise is tidily lined up here. It seems it was roughly organized before they left...")
  ShowMessageFace("",0,0,2,2)
  ShowMessage("\\n<Investigator>According to remaining invoices, on items are missing. If they out of their own will, they would have brought some...")
  0()



EVENT   7
 PAGE   1
  ShowMessageFace("",0,0,2,1)
  ShowMessage("\\n<Investigator>This used to be the inn... we investigators also rest here.")
  ShowMessageFace("",0,0,2,2)
  ShowMessage("\\n<Investigator>Would you like to rest here as well?")
  ShowChoices(strings("Yes","No"),2)
  IfPlayerPicksChoice(0,null)
   221()
   249(bytes(0x04,0x08,0x6f,0x3a,0x0c,0x52,0x50,0x47,0x3a,0x3a,0x4d,0x45,0x08,0x3a,0x0a,0x40,0x6e,0x61,0x6d,0x65,0x49,0x22,0x08,0x49,0x6e,0x6e,0x06,0x3a,0x06,0x45,0x54,0x3a,0x0b,0x40,0x70,0x69,0x74,0x63,0x68,0x69,0x69,0x3a,0x0c,0x40,0x76,0x6f,0x6c,0x75,0x6d,0x65,0x69,0x69))
   Wait(150)
   314(0,0)
   222()
   0()
  IfPlayerPicksChoice(1,null)
   0()
  404()
  0()



EVENT   8
 PAGE   1
  If(2,"A",1)
   ChangeSelfSwitch("A",0)
   ChangeVariable(1035,1035,1,0,1)
   0()
  EndIf()
  ShowMessageFace("",0,0,2,1)
  ShowMessage("\\n<Investigator>The villagers who disappeared didn't leave any message... but the letter with a single sentence is an exception to that.")
  ShowMessageFace("",0,0,2,2)
  ShowMessage("The letter was written with beautiful characters...")
  ShowMessageFace("",0,0,2,3)
  ShowMessage("'We Set off to the world of God.'")
  ShowMessageFace("",0,0,2,4)
  ShowMessage("\\n<Investigator>I wonder what does 'We Set off to the world of God.' mean. Some investigators suggest mass suicide but...")
  ShowMessageFace("",0,0,2,5)
  ShowMessage("\\n<Investigator>I don't think all villagers would commit suicide. There would be people who resist and oppose that.")
  ShowMessageFace("",0,0,2,6)
  ShowMessage("\\n<Investigator>And why have they left only this behind? Did they want to avoid conveying to other where are they going?")
  ShowMessageFace("",0,0,2,7)
  ShowMessage("\\n<Investigator>Of course, the villagers from here had plenty of relatives and acquaintances outside. The reason they didn't leave any message for them was...")
  ShowMessageFace("",0,0,2,8)
  ShowMessage("\\n<Investigator>Surely not the lack of time. Residents of every house have cleaned up before leaving.")
  ShowMessageFace(binary"",0,0,2,9)
  ShowMessage("\\n<Investigator>If they had time for that, why haven't they left any message... ...Good grief, anything and all in here is a mystery.")
  0()



EVENT   9
 PAGE   1
  If(2,"A",1)
   ChangeSelfSwitch("A",0)
   ChangeVariable(1035,1035,1,0,1)
   0()
  EndIf()
  ShowMessageFace("",0,0,2,1)
  ShowMessage("\\n<Investigator>The very strange point is... that the inhabitants left all their belongings.")
  ShowMessageFace("",0,0,2,2)
  ShowMessage("\\n<Investigator>Not just their fortune and daily necessities, even food and medicine... if they left to to travel, these should not be left behind.")
  ShowMessageFace("",0,0,2,3)
  ShowMessage("\\n<Investigator>Where on earth are they...and why...")
  0()



EVENT   10
 PAGE   1
  If(2,"A",1)
   ChangeSelfSwitch("A",0)
   ChangeVariable(1035,1035,1,0,1)
   0()
  EndIf()
  ShowMessageFace("",0,0,2,1)
  ShowMessage("\\n<Investigator>As you can see, there's no evidence of fighting or devastation. There are also several evidence that they left out of their own will.")
  ShowMessageFace("",0,0,2,2)
  ShowMessage("\\n<Investigator>But where have they disappeared to? To think such a large number of people would disappear without witnesses...")
  ShowMessageFace("",0,0,2,3)
  ShowMessage("\\n<Investigator>It makes you truly think they disappeared like smoke. I wonder what happened...")
  0()



EVENT   11
 PAGE   1
  250(bytes(0x04,0x08,0x6f,0x3a,0x0c,0x52,0x50,0x47,0x3a,0x3a,0x53,0x45,0x08,0x3a,0x0a,0x40,0x6e,0x61,0x6d,0x65,0x49,0x22,0x0a,0x49,0x74,0x65,0x6d,0x31,0x06,0x3a,0x06,0x45,0x54,0x3a,0x0b,0x40,0x70,0x69,0x74,0x63,0x68,0x69,0x69,0x3a,0x0c,0x40,0x76,0x6f,0x6c,0x75,0x6d,0x65,0x69,0x55))
  ChangeSelfSwitch("A",0)
  ChangeInventory_Item(32,0,0,1)
  0()
 PAGE   2
  // condition: self-switch A is ON
  0()



EVENT   12
 PAGE   1
  250(bytes(0x04,0x08,0x6f,0x3a,0x0c,0x52,0x50,0x47,0x3a,0x3a,0x53,0x45,0x08,0x3a,0x0a,0x40,0x6e,0x61,0x6d,0x65,0x49,0x22,0x0a,0x49,0x74,0x65,0x6d,0x31,0x06,0x3a,0x06,0x45,0x54,0x3a,0x0b,0x40,0x70,0x69,0x74,0x63,0x68,0x69,0x69,0x3a,0x0c,0x40,0x76,0x6f,0x6c,0x75,0x6d,0x65,0x69,0x55))
  ChangeSelfSwitch("A",0)
  ChangeInventory_Item(335,0,0,1)
  0()
 PAGE   2
  // condition: self-switch A is ON
  0()



EVENT   13
 PAGE   1
  250(bytes(0x04,0x08,0x6f,0x3a,0x0c,0x52,0x50,0x47,0x3a,0x3a,0x53,0x45,0x08,0x3a,0x0a,0x40,0x6e,0x61,0x6d,0x65,0x49,0x22,0x0a,0x49,0x74,0x65,0x6d,0x31,0x06,0x3a,0x06,0x45,0x54,0x3a,0x0b,0x40,0x70,0x69,0x74,0x63,0x68,0x69,0x69,0x3a,0x0c,0x40,0x76,0x6f,0x6c,0x75,0x6d,0x65,0x69,0x55))
  ChangeSelfSwitch("A",0)
  ChangeInventoryArmor(176,0,0,1,false)
  0()
 PAGE   2
  // condition: self-switch A is ON
  0()



EVENT   14
 PAGE   1
  250(bytes(0x04,0x08,0x6f,0x3a,0x0c,0x52,0x50,0x47,0x3a,0x3a,0x53,0x45,0x08,0x3a,0x0a,0x40,0x6e,0x61,0x6d,0x65,0x49,0x22,0x0a,0x49,0x74,0x65,0x6d,0x31,0x06,0x3a,0x06,0x45,0x54,0x3a,0x0b,0x40,0x70,0x69,0x74,0x63,0x68,0x69,0x69,0x3a,0x0c,0x40,0x76,0x6f,0x6c,0x75,0x6d,0x65,0x69,0x55))
  ChangeSelfSwitch("A",0)
  ChangeInventory_Item(188,0,0,1)
  0()
 PAGE   2
  // condition: self-switch A is ON
  0()



EVENT   15
 PAGE   1
  ShowMessageFace("",0,0,2,1)
  ShowMessage("\\n<Investigator>This household seemed to have kept a dog. But there's no sign of that dog now...")
  ShowMessageFace("",0,0,2,2)
  ShowMessage("\\n<Investigator>Similarly, other households also have missing pets and livestock. I wonder if the villagers took them along...")
  355("actor_label_jump")
  EndEventProcessing()
  DefineLabel("60")
  ShowMessageFace("dog_fc1",0,0,2,3)
  ShowMessage("\\n<Pochi>Did doggies also disappear...?")
  EndEventProcessing()
  0()



EVENT   16
 PAGE   1
  ShowMessageFace("",0,0,2,1)
  ShowMessage("\\n<Investigator>Strangely, every house is too clean. It seems like they organized everything before leaving the village...")
  ShowMessageFace("",0,0,2,2)
  ShowMessage("\\n<Investigator>Raw ingredients were disposed of, kitchens were cleaned spotless. All of them disappeared after cleaning everything up...")
  0()



EVENT   17
 PAGE   1
  250(bytes(0x04,0x08,0x6f,0x3a,0x0c,0x52,0x50,0x47,0x3a,0x3a,0x53,0x45,0x08,0x3a,0x0a,0x40,0x6e,0x61,0x6d,0x65,0x49,0x22,0x0a,0x49,0x74,0x65,0x6d,0x31,0x06,0x3a,0x06,0x45,0x54,0x3a,0x0b,0x40,0x70,0x69,0x74,0x63,0x68,0x69,0x69,0x3a,0x0c,0x40,0x76,0x6f,0x6c,0x75,0x6d,0x65,0x69,0x55))
  ChangeSelfSwitch("A",0)
  ChangeInventory_Item(36,0,0,1)
  0()
 PAGE   2
  // condition: self-switch A is ON
  0()
