﻿


EVENT   1
 PAGE   1
  ChangeSwitch(31,31,1)
  If(2,"A",1)
   ChangeSelfSwitch("A",0)
   ShowMessageFace("ruka_fc1",0,0,2,1)
   ShowMessage("\\n<Luka>こんなところに、塔が……")
   If(0,4,0)
    ShowMessageFace("alice_fc5",2,0,2,2)
    ShowMessage("\\n<Alice>入り口は開いているようだな…… よし、中を探索してみるぞ。")
    0()
   EndIf()
   If(0,5,0)
    ShowMessageFace("iriasu_fc4",7,0,2,3)
    ShowMessage("\\n<Ilias>入り口は開いていますね…… 警戒しつつ、中を探索しましょう。")
    0()
   EndIf()
   0()
  EndIf()
  ChangeSwitch(278,278,0)
  ChangeSwitch(100,100,0)
  281(0)
  250(bytes(0x04,0x08,0x6f,0x3a,0x0c,0x52,0x50,0x47,0x3a,0x3a,0x53,0x45,0x08,0x3a,0x0a,0x40,0x6e,0x61,0x6d,0x65,0x49,0x22,0x09,0x4d,0x6f,0x76,0x65,0x06,0x3a,0x06,0x45,0x54,0x3a,0x0b,0x40,0x70,0x69,0x74,0x63,0x68,0x69,0x69,0x3a,0x0c,0x40,0x76,0x6f,0x6c,0x75,0x6d,0x65,0x69,0x55))
  TeleportPlayer(0,167,37,68,8,0)
  0()



EVENT   2
 PAGE   1
  281(0)
  250(bytes(0x04,0x08,0x6f,0x3a,0x0c,0x52,0x50,0x47,0x3a,0x3a,0x53,0x45,0x08,0x3a,0x0a,0x40,0x6e,0x61,0x6d,0x65,0x49,0x22,0x09,0x4d,0x6f,0x76,0x65,0x06,0x3a,0x06,0x45,0x54,0x3a,0x0b,0x40,0x70,0x69,0x74,0x63,0x68,0x69,0x69,0x3a,0x0c,0x40,0x76,0x6f,0x6c,0x75,0x6d,0x65,0x69,0x55))
  TeleportPlayer(0,422,16,1,2,0)
  0()



EVENT   3
 PAGE   1
  ChangeSelfSwitch("A",0)
  If(0,6,0)
   ShowMessageFace("sonia_fc3",7,0,2,1)
   ShowMessage("\\n<Sonya>これ、何……？ 一体どうなってるの……？")
   0()
  Else()
   ShowMessageFace("ruka_fc1",0,0,2,2)
   ShowMessage("\\n<Luka>これは、一体……！？")
   0()
  EndIf()
  If(0,4,0)
   ShowMessageFace("alice_fc6",0,0,2,3)
   ShowMessage("\\n<Alice>なんなのだ、これは……！？ 世界が、闇のようなものに浸食されている……？")
   ShowMessageFace("alice_fc6",0,0,2,4)
   ShowMessage("\\n<Alice>見渡す限り、全て暗黒…… この世界で残されているのは、この島だけなのか？")
   0()
  EndIf()
  If(0,5,0)
   ShowMessageFace("iriasu_fc4",5,0,2,5)
   ShowMessage("\\n<Ilias>そんな、まさか……！ 世界が、無に飲み込まれて……！？")
   ShowMessageFace("iriasu_fc4",5,0,2,6)
   ShowMessage("\\n<Ilias>見渡す限り、全ては無…… この世界に残されているのは、この島のみ……")
   0()
  EndIf()
  If(4,129,0)
   ShowMessageFace("brunhild_fc1",0,0,2,7)
   ShowMessage("\\n<Hild>サーチ不可能…… この島以外、反応なし……")
   0()
  EndIf()
  If(0,6,0)
   ShowMessageFace("sonia_fc3",7,0,2,8)
   ShowMessage("\\n<Sonya>嘘でしょ……？ ここ以外、全部この黒いのに飲み込まれたっていうの……？")
   0()
  Else()
   ShowMessageFace("ruka_fc1",0,0,2,9)
   ShowMessage("\\n<Luka>そんな…… ここ以外、全部この黒いのに飲み込まれたっていうのか……？")
   0()
  EndIf()
  ShowMessageFace("ruka_fc1",0,0,2,10)
  ShowMessage("\\n<Luka>じゃあ、この世界の人間は……！？ もしかして、もう……")
  If(4,41,0)
   ShowMessageFace("stein_fc2",2,0,2,11)
   ShowMessage("\\n<Promestein>これは、生物が存在できる環境ではないですね…… いたとしても、せいぜい微生物レベルでしょう。")
   0()
  EndIf()
  If(4,79,0)
   ShowMessageFace("nuruko_fc1",0,0,2,12)
   ShowMessage("\\n<Nuruko>きゅ……")
   0()
  EndIf()
  If(0,4,0)
   ShowMessageFace("alice_fc5",2,0,2,13)
   ShowMessage("\\n<Alice>警戒しながら探索してみよう。 町はなくても、建物くらいは残っているかもしれん。")
   0()
  EndIf()
  If(0,5,0)
   ShowMessageFace("iriasu_fc4",2,0,2,14)
   ShowMessage("\\n<Ilias>警戒しながら探索しましょう。 町はなくても、なんらかの建造物くらいはあるはず。")
   0()
  EndIf()
  ShowMessageFace("ruka_fc1",0,0,2,15)
  ShowMessage("\\n<Luka>体を休める場所も、あればいいんだけど――")
  Wait(15)
  250(bytes(0x04,0x08,0x6f,0x3a,0x0c,0x52,0x50,0x47,0x3a,0x3a,0x53,0x45,0x08,0x3a,0x0a,0x40,0x6e,0x61,0x6d,0x65,0x49,0x22,0x0d,0x6d,0x6f,0x6e,0x5f,0x62,0x6f,0x6d,0x31,0x06,0x3a,0x06,0x45,0x54,0x3a,0x0b,0x40,0x70,0x69,0x74,0x63,0x68,0x69,0x69,0x3a,0x0c,0x40,0x76,0x6f,0x6c,0x75,0x6d,0x65,0x69,0x69))
  225(7,7,120,true)
  Wait(120)
  241(bytes(0x04,0x08,0x6f,0x3a,0x0d,0x52,0x50,0x47,0x3a,0x3a,0x42,0x47,0x4d,0x08,0x3a,0x0a,0x40,0x6e,0x61,0x6d,0x65,0x49,0x22,0x0a,0x6b,0x69,0x6b,0x69,0x32,0x06,0x3a,0x06,0x45,0x54,0x3a,0x0c,0x40,0x76,0x6f,0x6c,0x75,0x6d,0x65,0x69,0x69,0x3a,0x0b,0x40,0x70,0x69,0x74,0x63,0x68,0x69,0x69))
  If(0,6,0)
   ShowMessageFace("sonia_fc3",7,0,2,16)
   ShowMessage("\\n<Sonya>ちょっと……今のなに！？ 地震にしては、大きすぎない……！？")
   0()
  Else()
   ShowMessageFace("ruka_fc1",0,0,2,17)
   ShowMessage("\\n<Luka>今のは、地震……？")
   0()
  EndIf()
  If(4,41,0)
   ShowMessageFace("stein_fc2",2,0,2,18)
   ShowMessage("\\n<Promestein>普通の地震とは思えませんね…… 初期微動を感じ取れず、P波にS波、表面波が同時に来ました。")
   0()
  EndIf()
  ShowMessageFace("gnome_fc1",0,0,2,19)
  ShowMessage("\\n<Gnome>……………………")
  ShowMessageFace("sylph_fc1",4,0,2,20)
  ShowMessage("\\n<Sylph>大地の力を感じない、今のは地震じゃない……だって。")
  ShowMessageFace("sylph_fc1",4,0,2,21)
  ShowMessage("\\n<Sylph>それに、風の力も感じないよ…… この世界、風も土も死んじゃったの……？")
  If(0,4,0)
   ShowMessageFace("alice_fc5",2,0,2,22)
   ShowMessage("\\n<Alice>尋常ならざる世界のようだな…… それに、周囲からはアポトーシスの気配もする。")
   ShowMessageFace("alice_fc5",2,0,2,23)
   ShowMessage("\\n<Alice>万全の注意を払いながら、探索するとしよう……")
   0()
  EndIf()
  If(0,5,0)
   ShowMessageFace("iriasu_fc4",2,0,2,24)
   ShowMessage("\\n<Ilias>異常に満ちた世界のようですね…… それに、周囲からはアポトーシスの気配もします。")
   ShowMessageFace("iriasu_fc4",2,0,2,25)
   ShowMessage("\\n<Ilias>万全の注意を払い、探索しましょう……")
   0()
  EndIf()
  0()
 PAGE   2
  // condition: self-switch A is ON
  0()
