﻿
DisplayName "Sabasa"



EVENT   10
 PAGE   1
  If(1,1028,0,1,2)
   ShowMessageFace("",0,0,2,1)
   ShowMessage("The door is locked.")
   If(0,4,0)
    ShowMessageFace("alice_fc5",0,0,2,2)
    ShowMessage("\\n<Alice>This door is locked with magic... Is this a normal citizen's house? Let's ask around the tavern.")
    ShowMessageFace("alice_fc5",0,0,2,3)
    ShowMessage("\\n<Alice>This house makes me curious, I wonder if anyone in the tavern knows about it.")
    0()
   EndIf()
   If(0,5,0)
    ShowMessageFace("iriasu_fc4",2,0,2,4)
    ShowMessage("\\n<Ilias>The door appears to be sealed with powerful magic. It's not a normal citizen's house.")
    ShowMessageFace("iriasu_fc4",0,0,2,5)
    ShowMessage("\\n<Ilias>There is something wrong with this house. Perhaps someone in the tavern knows more about this house.")
    0()
   EndIf()
   0()
  EndIf()
  If(1,1028,0,2,1)
   If(2,"A",1)
    ChangeSelfSwitch("A",0)
    ShowMessageFace("",0,0,2,6)
    ShowMessage("The door is locked.")
    If(0,4,0)
     ShowMessageFace("alice_fc5",0,0,2,7)
     ShowMessage("\\n<Alice>The Guard in the tavern said that this is Saalan's house. If it won't open normally, then we will open it by force.")
     0()
    EndIf()
    If(0,5,0)
     ShowMessageFace("iriasu_fc4",2,0,2,8)
     ShowMessage("\\n<Ilias>This must be Saalan's house. Let's open the magic lock then.")
     0()
    EndIf()
    250(bytes(0x04,0x08,0x6f,0x3a,0x0c,0x52,0x50,0x47,0x3a,0x3a,0x53,0x45,0x08,0x3a,0x0a,0x40,0x6e,0x61,0x6d,0x65,0x49,0x22,0x0b,0x4d,0x61,0x67,0x69,0x63,0x31,0x06,0x3a,0x06,0x45,0x54,0x3a,0x0b,0x40,0x70,0x69,0x74,0x63,0x68,0x69,0x69,0x3a,0x0c,0x40,0x76,0x6f,0x6c,0x75,0x6d,0x65,0x69,0x55))
    ShowMessageFace("",0,0,2,9)
    ShowMessage("The door was unlocked!	")
    0()
   EndIf()
   250(bytes(0x04,0x08,0x6f,0x3a,0x0c,0x52,0x50,0x47,0x3a,0x3a,0x53,0x45,0x08,0x3a,0x0a,0x40,0x6e,0x61,0x6d,0x65,0x49,0x22,0x0a,0x4f,0x70,0x65,0x6e,0x31,0x06,0x3a,0x06,0x45,0x54,0x3a,0x0b,0x40,0x70,0x69,0x74,0x63,0x68,0x69,0x69,0x3a,0x0c,0x40,0x76,0x6f,0x6c,0x75,0x6d,0x65,0x69,0x55))
   205(0,bytes(0x04,0x08,0x6f,0x3a,0x13,0x52,0x50,0x47,0x3a,0x3a,0x4d,0x6f,0x76,0x65,0x52,0x6f,0x75,0x74,0x65,0x09,0x3a,0x0c,0x40,0x72,0x65,0x70,0x65,0x61,0x74,0x46,0x3a,0x0f,0x40,0x73,0x6b,0x69,0x70,0x70,0x61,0x62,0x6c,0x65,0x46,0x3a,0x0a,0x40,0x77,0x61,0x69,0x74,0x54,0x3a,0x0a,0x40,0x6c,0x69,0x73,0x74,0x5b,0x0c,0x6f,0x3a,0x15,0x52,0x50,0x47,0x3a,0x3a,0x4d,0x6f,0x76,0x65,0x43,0x6f,0x6d,0x6d,0x61,0x6e,0x64,0x07,0x3a,0x0a,0x40,0x63,0x6f,0x64,0x65,0x69,0x16,0x3a,0x10,0x40,0x70,0x61,0x72,0x61,0x6d,0x65,0x74,0x65,0x72,0x73,0x5b,0x00,0x6f,0x3b,0x0a,0x07,0x3b,0x0b,0x69,0x14,0x3b,0x0c,0x5b,0x06,0x69,0x08,0x6f,0x3b,0x0a,0x07,0x3b,0x0b,0x69,0x17,0x3b,0x0c,0x5b,0x00,0x6f,0x3b,0x0a,0x07,0x3b,0x0b,0x69,0x14,0x3b,0x0c,0x5b,0x06,0x69,0x08,0x6f,0x3b,0x0a,0x07,0x3b,0x0b,0x69,0x18,0x3b,0x0c,0x5b,0x00,0x6f,0x3b,0x0a,0x07,0x3b,0x0b,0x69,0x2a,0x3b,0x0c,0x5b,0x00,0x6f,0x3b,0x0a,0x07,0x3b,0x0b,0x69,0x00,0x3b,0x0c,0x5b,0x00))
   205(-1,bytes(0x04,0x08,0x6f,0x3a,0x13,0x52,0x50,0x47,0x3a,0x3a,0x4d,0x6f,0x76,0x65,0x52,0x6f,0x75,0x74,0x65,0x09,0x3a,0x0c,0x40,0x72,0x65,0x70,0x65,0x61,0x74,0x46,0x3a,0x0f,0x40,0x73,0x6b,0x69,0x70,0x70,0x61,0x62,0x6c,0x65,0x54,0x3a,0x0a,0x40,0x77,0x61,0x69,0x74,0x54,0x3a,0x0a,0x40,0x6c,0x69,0x73,0x74,0x5b,0x07,0x6f,0x3a,0x15,0x52,0x50,0x47,0x3a,0x3a,0x4d,0x6f,0x76,0x65,0x43,0x6f,0x6d,0x6d,0x61,0x6e,0x64,0x07,0x3a,0x0a,0x40,0x63,0x6f,0x64,0x65,0x69,0x11,0x3a,0x10,0x40,0x70,0x61,0x72,0x61,0x6d,0x65,0x74,0x65,0x72,0x73,0x5b,0x00,0x6f,0x3b,0x0a,0x07,0x3b,0x0b,0x69,0x00,0x3b,0x0c,0x5b,0x00))
   250(bytes(0x04,0x08,0x6f,0x3a,0x0c,0x52,0x50,0x47,0x3a,0x3a,0x53,0x45,0x08,0x3a,0x0a,0x40,0x6e,0x61,0x6d,0x65,0x49,0x22,0x09,0x4d,0x6f,0x76,0x65,0x06,0x3a,0x06,0x45,0x54,0x3a,0x0b,0x40,0x70,0x69,0x74,0x63,0x68,0x69,0x69,0x3a,0x0c,0x40,0x76,0x6f,0x6c,0x75,0x6d,0x65,0x69,0x55))
   TeleportPlayer(0,477,134,25,0,0)
   0()
  EndIf()
  0()



EVENT   3
 PAGE   1
  250(bytes(0x04,0x08,0x6f,0x3a,0x0c,0x52,0x50,0x47,0x3a,0x3a,0x53,0x45,0x08,0x3a,0x0a,0x40,0x6e,0x61,0x6d,0x65,0x49,0x22,0x0a,0x4f,0x70,0x65,0x6e,0x31,0x06,0x3a,0x06,0x45,0x54,0x3a,0x0b,0x40,0x70,0x69,0x74,0x63,0x68,0x69,0x69,0x3a,0x0c,0x40,0x76,0x6f,0x6c,0x75,0x6d,0x65,0x69,0x55))
  205(0,bytes(0x04,0x08,0x6f,0x3a,0x13,0x52,0x50,0x47,0x3a,0x3a,0x4d,0x6f,0x76,0x65,0x52,0x6f,0x75,0x74,0x65,0x09,0x3a,0x0c,0x40,0x72,0x65,0x70,0x65,0x61,0x74,0x46,0x3a,0x0f,0x40,0x73,0x6b,0x69,0x70,0x70,0x61,0x62,0x6c,0x65,0x46,0x3a,0x0a,0x40,0x77,0x61,0x69,0x74,0x54,0x3a,0x0a,0x40,0x6c,0x69,0x73,0x74,0x5b,0x0c,0x6f,0x3a,0x15,0x52,0x50,0x47,0x3a,0x3a,0x4d,0x6f,0x76,0x65,0x43,0x6f,0x6d,0x6d,0x61,0x6e,0x64,0x07,0x3a,0x0a,0x40,0x63,0x6f,0x64,0x65,0x69,0x16,0x3a,0x10,0x40,0x70,0x61,0x72,0x61,0x6d,0x65,0x74,0x65,0x72,0x73,0x5b,0x00,0x6f,0x3b,0x0a,0x07,0x3b,0x0b,0x69,0x14,0x3b,0x0c,0x5b,0x06,0x69,0x08,0x6f,0x3b,0x0a,0x07,0x3b,0x0b,0x69,0x17,0x3b,0x0c,0x5b,0x00,0x6f,0x3b,0x0a,0x07,0x3b,0x0b,0x69,0x14,0x3b,0x0c,0x5b,0x06,0x69,0x08,0x6f,0x3b,0x0a,0x07,0x3b,0x0b,0x69,0x18,0x3b,0x0c,0x5b,0x00,0x6f,0x3b,0x0a,0x07,0x3b,0x0b,0x69,0x2a,0x3b,0x0c,0x5b,0x00,0x6f,0x3b,0x0a,0x07,0x3b,0x0b,0x69,0x00,0x3b,0x0c,0x5b,0x00))
  205(-1,bytes(0x04,0x08,0x6f,0x3a,0x13,0x52,0x50,0x47,0x3a,0x3a,0x4d,0x6f,0x76,0x65,0x52,0x6f,0x75,0x74,0x65,0x09,0x3a,0x0c,0x40,0x72,0x65,0x70,0x65,0x61,0x74,0x46,0x3a,0x0f,0x40,0x73,0x6b,0x69,0x70,0x70,0x61,0x62,0x6c,0x65,0x54,0x3a,0x0a,0x40,0x77,0x61,0x69,0x74,0x54,0x3a,0x0a,0x40,0x6c,0x69,0x73,0x74,0x5b,0x07,0x6f,0x3a,0x15,0x52,0x50,0x47,0x3a,0x3a,0x4d,0x6f,0x76,0x65,0x43,0x6f,0x6d,0x6d,0x61,0x6e,0x64,0x07,0x3a,0x0a,0x40,0x63,0x6f,0x64,0x65,0x69,0x11,0x3a,0x10,0x40,0x70,0x61,0x72,0x61,0x6d,0x65,0x74,0x65,0x72,0x73,0x5b,0x00,0x6f,0x3b,0x0a,0x07,0x3b,0x0b,0x69,0x00,0x3b,0x0c,0x5b,0x00))
  250(bytes(0x04,0x08,0x6f,0x3a,0x0c,0x52,0x50,0x47,0x3a,0x3a,0x53,0x45,0x08,0x3a,0x0a,0x40,0x6e,0x61,0x6d,0x65,0x49,0x22,0x09,0x4d,0x6f,0x76,0x65,0x06,0x3a,0x06,0x45,0x54,0x3a,0x0b,0x40,0x70,0x69,0x74,0x63,0x68,0x69,0x69,0x3a,0x0c,0x40,0x76,0x6f,0x6c,0x75,0x6d,0x65,0x69,0x55))
  TeleportPlayer(0,477,83,48,6,0)
  0()



EVENT   14
 PAGE   1
  281(0)
  250(bytes(0x04,0x08,0x6f,0x3a,0x0c,0x52,0x50,0x47,0x3a,0x3a,0x53,0x45,0x08,0x3a,0x0a,0x40,0x6e,0x61,0x6d,0x65,0x49,0x22,0x09,0x4d,0x6f,0x76,0x65,0x06,0x3a,0x06,0x45,0x54,0x3a,0x0b,0x40,0x70,0x69,0x74,0x63,0x68,0x69,0x69,0x3a,0x0c,0x40,0x76,0x6f,0x6c,0x75,0x6d,0x65,0x69,0x55))
  TeleportPlayer(0,377,31,54,0,0)
  0()



EVENT   6
 PAGE   1
  281(0)
  250(bytes(0x04,0x08,0x6f,0x3a,0x0c,0x52,0x50,0x47,0x3a,0x3a,0x53,0x45,0x08,0x3a,0x0a,0x40,0x6e,0x61,0x6d,0x65,0x49,0x22,0x09,0x4d,0x6f,0x76,0x65,0x06,0x3a,0x06,0x45,0x54,0x3a,0x0b,0x40,0x70,0x69,0x74,0x63,0x68,0x69,0x69,0x3a,0x0c,0x40,0x76,0x6f,0x6c,0x75,0x6d,0x65,0x69,0x55))
  TeleportPlayer(0,377,31,54,0,0)
  0()



EVENT   11
 PAGE   1
  281(0)
  250(bytes(0x04,0x08,0x6f,0x3a,0x0c,0x52,0x50,0x47,0x3a,0x3a,0x53,0x45,0x08,0x3a,0x0a,0x40,0x6e,0x61,0x6d,0x65,0x49,0x22,0x09,0x4d,0x6f,0x76,0x65,0x06,0x3a,0x06,0x45,0x54,0x3a,0x0b,0x40,0x70,0x69,0x74,0x63,0x68,0x69,0x69,0x3a,0x0c,0x40,0x76,0x6f,0x6c,0x75,0x6d,0x65,0x69,0x55))
  TeleportPlayer(0,377,31,54,0,0)
  0()



EVENT   12
 PAGE   1
  281(0)
  250(bytes(0x04,0x08,0x6f,0x3a,0x0c,0x52,0x50,0x47,0x3a,0x3a,0x53,0x45,0x08,0x3a,0x0a,0x40,0x6e,0x61,0x6d,0x65,0x49,0x22,0x09,0x4d,0x6f,0x76,0x65,0x06,0x3a,0x06,0x45,0x54,0x3a,0x0b,0x40,0x70,0x69,0x74,0x63,0x68,0x69,0x69,0x3a,0x0c,0x40,0x76,0x6f,0x6c,0x75,0x6d,0x65,0x69,0x55))
  TeleportPlayer(0,377,31,54,0,0)
  0()



EVENT   13
 PAGE   1
  281(0)
  250(bytes(0x04,0x08,0x6f,0x3a,0x0c,0x52,0x50,0x47,0x3a,0x3a,0x53,0x45,0x08,0x3a,0x0a,0x40,0x6e,0x61,0x6d,0x65,0x49,0x22,0x09,0x4d,0x6f,0x76,0x65,0x06,0x3a,0x06,0x45,0x54,0x3a,0x0b,0x40,0x70,0x69,0x74,0x63,0x68,0x69,0x69,0x3a,0x0c,0x40,0x76,0x6f,0x6c,0x75,0x6d,0x65,0x69,0x55))
  TeleportPlayer(0,377,31,54,0,0)
  0()



EVENT   15
 PAGE   1
  281(0)
  250(bytes(0x04,0x08,0x6f,0x3a,0x0c,0x52,0x50,0x47,0x3a,0x3a,0x53,0x45,0x08,0x3a,0x0a,0x40,0x6e,0x61,0x6d,0x65,0x49,0x22,0x09,0x4d,0x6f,0x76,0x65,0x06,0x3a,0x06,0x45,0x54,0x3a,0x0b,0x40,0x70,0x69,0x74,0x63,0x68,0x69,0x69,0x3a,0x0c,0x40,0x76,0x6f,0x6c,0x75,0x6d,0x65,0x69,0x55))
  TeleportPlayer(0,377,31,54,0,0)
  0()



EVENT   16
 PAGE   1
  281(0)
  250(bytes(0x04,0x08,0x6f,0x3a,0x0c,0x52,0x50,0x47,0x3a,0x3a,0x53,0x45,0x08,0x3a,0x0a,0x40,0x6e,0x61,0x6d,0x65,0x49,0x22,0x09,0x4d,0x6f,0x76,0x65,0x06,0x3a,0x06,0x45,0x54,0x3a,0x0b,0x40,0x70,0x69,0x74,0x63,0x68,0x69,0x69,0x3a,0x0c,0x40,0x76,0x6f,0x6c,0x75,0x6d,0x65,0x69,0x55))
  TeleportPlayer(0,377,31,54,0,0)
  0()



EVENT   17
 PAGE   1
  281(0)
  250(bytes(0x04,0x08,0x6f,0x3a,0x0c,0x52,0x50,0x47,0x3a,0x3a,0x53,0x45,0x08,0x3a,0x0a,0x40,0x6e,0x61,0x6d,0x65,0x49,0x22,0x09,0x4d,0x6f,0x76,0x65,0x06,0x3a,0x06,0x45,0x54,0x3a,0x0b,0x40,0x70,0x69,0x74,0x63,0x68,0x69,0x69,0x3a,0x0c,0x40,0x76,0x6f,0x6c,0x75,0x6d,0x65,0x69,0x55))
  TeleportPlayer(0,377,31,54,0,0)
  0()



EVENT   18
 PAGE   1
  281(0)
  250(bytes(0x04,0x08,0x6f,0x3a,0x0c,0x52,0x50,0x47,0x3a,0x3a,0x53,0x45,0x08,0x3a,0x0a,0x40,0x6e,0x61,0x6d,0x65,0x49,0x22,0x09,0x4d,0x6f,0x76,0x65,0x06,0x3a,0x06,0x45,0x54,0x3a,0x0b,0x40,0x70,0x69,0x74,0x63,0x68,0x69,0x69,0x3a,0x0c,0x40,0x76,0x6f,0x6c,0x75,0x6d,0x65,0x69,0x55))
  TeleportPlayer(0,377,31,54,0,0)
  0()



EVENT   19
 PAGE   1
  281(0)
  250(bytes(0x04,0x08,0x6f,0x3a,0x0c,0x52,0x50,0x47,0x3a,0x3a,0x53,0x45,0x08,0x3a,0x0a,0x40,0x6e,0x61,0x6d,0x65,0x49,0x22,0x09,0x4d,0x6f,0x76,0x65,0x06,0x3a,0x06,0x45,0x54,0x3a,0x0b,0x40,0x70,0x69,0x74,0x63,0x68,0x69,0x69,0x3a,0x0c,0x40,0x76,0x6f,0x6c,0x75,0x6d,0x65,0x69,0x55))
  TeleportPlayer(0,377,31,54,0,0)
  0()



EVENT   20
 PAGE   1
  281(0)
  250(bytes(0x04,0x08,0x6f,0x3a,0x0c,0x52,0x50,0x47,0x3a,0x3a,0x53,0x45,0x08,0x3a,0x0a,0x40,0x6e,0x61,0x6d,0x65,0x49,0x22,0x09,0x4d,0x6f,0x76,0x65,0x06,0x3a,0x06,0x45,0x54,0x3a,0x0b,0x40,0x70,0x69,0x74,0x63,0x68,0x69,0x69,0x3a,0x0c,0x40,0x76,0x6f,0x6c,0x75,0x6d,0x65,0x69,0x55))
  TeleportPlayer(0,377,31,54,0,0)
  0()



EVENT   32
 PAGE   1
  ShowMessageFace("",0,0,2,1)
  ShowMessage("\\n<Guard>")
  0()
 PAGE   2
  // condition: variable 1028 >= 1
  0()



EVENT   33
 PAGE   1
  ShowMessageFace("",0,0,2,1)
  ShowMessage("\\n<Guard>")
  0()
 PAGE   2
  // condition: variable 1028 >= 1
  0()



EVENT   35
 PAGE   1
  ShowMessageFace("",0,0,2,1)
  ShowMessage("\\n<Storekeeper's Daughter>Welcome! Our shop sells weapons, armor and accessories! This way!")
  355("actor_label_jump")
  EndEventProcessing()
  DefineLabel("66")
  ShowMessageFace("vgirl_fc1",0,0,2,2)
  ShowMessage("\\n<Vanilla>The entire building is a shop?! Amazing!")
  EndEventProcessing()
  0()



EVENT   37
 PAGE   1
  ShowMessageFace("",0,0,2,1)
  ShowMessage("\\n<Woman>The King of Sabasa died in a accident while he was visiting the Tartarus pit. A sudden gust of wind managed to knock him into the pit.")
  ShowMessageFace("",0,0,2,2)
  ShowMessage("\\n<Woman>But his body was never found, even now. Because of that, some believe he may have survived.")
  If(1,1028,0,7,2)
   ShowMessageFace("",0,0,2,3)
   ShowMessage("\\n<Woman>It would be the best news in weeks if we found out he really was alive. He would take Queen Sara off the throne and restore the country back to how it used to be.")
   0()
  EndIf()
  355("actor_label_jump")
  EndEventProcessing()
  DefineLabel("529")
  ShowMessageFace("sara_fc3",3,0,2,4)
  ShowMessage("\\n<Sara>Father... could he be alive?")
  EndEventProcessing()
  0()



EVENT   40
 PAGE   1
  ShowMessageFace("",0,0,2,1)
  ShowMessage("\\n<Youth>The market trade has been thriving off of this desert ever since the ancient times. Traders from all over the continent gather here to sell their wares.")
  355("actor_label_jump")
  EndEventProcessing()
  DefineLabel("5")
  ShowMessageFace("alice_fc5",7,0,2,2)
  ShowMessage("\\n<Alice>Mmm, there's plenty of delicious things♪.")
  EndEventProcessing()
  DefineLabel("541")
  ShowMessageFace("piha_fc1",0,0,2,3)
  ShowMessage("\\n<Pyhar>There are bananas and grapes, that's unusual♪.")
  EndEventProcessing()
  0()



EVENT   41
 PAGE   1
  ShowMessageFace("",0,0,2,1)
  ShowMessage("\\n<Woman>North-east of Sabasa there's a place called the Oasis of Blessings. There's nothing special in there but it has become a tourist attraction because of it's beatiful landscape.")
  ShowMessageFace("",0,0,2,2)
  ShowMessage("\\n<Woman>Of course, monsters reside there too, so if you want to visit you would have to be able to defend yourself from the wild monsters.")
  355("actor_label_jump")
  EndEventProcessing()
  DefineLabel("41")
  ShowMessageFace("stein_fc2",1,0,2,3)
  ShowMessage("\\n<Promestein>An Oasis? This would be a great opportunity to examine the ecosystems of such areas. I'll need to take some water samples from there.")
  EndEventProcessing()
  DefineLabel("154")
  ShowMessageFace("wani_fc1",0,0,2,4)
  ShowMessage("\\n<Gaa>It has wonderful scenery and there's plenty of water there.  Shall we go and bath in there?")
  EndEventProcessing()
  DefineLabel("542")
  ShowMessageFace("domeima_fc1",0,0,2,5)
  ShowMessage("\\n<Domaimer>WATERRR!")
  EndEventProcessing()
  0()



EVENT   42
 PAGE   1
  If(1,1028,0,7,2)
   ShowMessageFace("",0,0,2,1)
   ShowMessage("\\n<Youth>The desert is a harsh environment. The reason Sabasa flourishes in such a region is solely because of our King's prowess.")
   ShowMessageFace("",0,0,2,2)
   ShowMessage("\\n<Youth>The previous King of Sabasa, his Majesty the 9th, was a most excellent ruler. But how can things have changed so quickly...")
   0()
  EndIf()
  If(1,1028,0,8,0)
   ShowMessageFace("",0,0,2,3)
   ShowMessage("\\n<Youth>The desert is a harsh environment. The reason Sabasa flourishes in such a region is solely because of our King's prowess.")
   ShowMessageFace("",0,0,2,4)
   ShowMessage("\\n<Youth>The general election will begin soon and the parliament is being re-established. But I would like to cherish the good traditions.")
   0()
  EndIf()
  0()



EVENT   43
 PAGE   1
  ShowMessageFace("",0,0,2,1)
  ShowMessage("\\n<Saleswoman>How would you like some pretty and stylish accessorieeees?")
  ShowMessageFace("",0,0,2,2)
  ShowMessage("\\n<Saleswoman>But I guess adventurers wouldn't need those. Our accessories are for fashion and wouldn't help you in combat.")
  355("actor_label_jump")
  EndEventProcessing()
  DefineLabel("113")
  ShowMessageFace("lamia_fc1",0,0,2,3)
  ShowMessage("\\n<Anastasia>I'll take a look anyway. This ribbon looks really nice actually.")
  EndEventProcessing()
  DefineLabel("525")
  ShowMessageFace("sonia_fc2",3,0,2,4)
  ShowMessage("\\n<Sonya>I am a little curious but... let's put off things we don't need, for now.")
  EndEventProcessing()
  0()



EVENT   38
 PAGE   1
  If(1,1028,0,7,2)
   ShowMessageFace("",0,0,2,1)
   ShowMessage("\\n<Old Man>Queen Sara wasn't like the woman she is now. She was noble, benevolent and intelligent.")
   ShowMessageFace("",0,0,2,2)
   ShowMessage("\\n<Old Man>Has the sudden loss of her father changed her like that? Or maybe someone cast a strange spell on her...")
   EndEventProcessing()
   0()
  EndIf()
  If(1,1028,0,8,0)
   ShowMessageFace("",0,0,2,3)
   ShowMessage("\\n<Old Man>As I thought, Queen Sara truly was deprived of her reason. Her abdication is truly a shame...but I'm glad she's back to her normal self.")
   ShowMessageFace("",0,0,2,4)
   ShowMessage("\\n<Old Man>Even now, there are many who are pleased that she's no longer Queen. I suppose this is unavoidable after the way she acted whilst on the throne.")
   355("actor_label_jump")
   EndEventProcessing()
   DefineLabel("118")
   ShowMessageFace("meia_fc1",3,0,2,5)
   ShowMessage("\\n<Meia>Getting a bad name after losing your reason... I know that feeling that well.")
   EndEventProcessing()
   DefineLabel("529")
   ShowMessageFace("sara_fc3",1,0,2,6)
   ShowMessage("\\n<Sara>I exposed my foolishness to that extent, it's natural. I will repay the citizens for what I did and show them I have truly changed.")
   EndEventProcessing()
   0()
  EndIf()
  0()



EVENT   44
 PAGE   1
  ShowMessageFace("",0,0,2,1)
  ShowMessage("\\n<Man>There are various shops here in Sabasa, but I hear that Grandeur has even more amazing shops to visit. After all, it is the world's best entertainment district!")
  ShowMessageFace("",0,0,2,2)
  ShowMessage("\\n<Man>There's shops everywhere! Shops and even more shops! Of course, the main attraction is the Grand Theater, but there's still plenty of other entertainment facilities!")
  ShowMessageFace("",0,0,2,3)
  ShowMessage("\\n<Man>Singing, dancing, alcohol, women... Everything you could dream of!")
  ShowMessageFace("",0,0,2,4)
  ShowMessage("\\n<Man>...Anyway, I still have work to do.")
  355("actor_label_jump")
  EndEventProcessing()
  DefineLabel("80")
  ShowMessageFace("orc_fc1",1,0,2,5)
  ShowMessage("\\n<Hip>That's amazing! I'd like to raid it, if I can!")
  EndEventProcessing()
  DefineLabel("114")
  ShowMessageFace("wakame_fc1",1,0,2,6)
  ShowMessage("\\n<Wakame>There's dancing? Gonna dance for joy, for joy...")
  EndEventProcessing()
  DefineLabel("143")
  ShowMessageFace("eva_fc1",0,0,2,7)
  ShowMessage("\\n<Eva>Hey, let's go there quickly! We'll play around in there♪.")
  EndEventProcessing()
  0()



EVENT   46
 PAGE   1
  ShowMessageFace("",0,0,2,1)
  ShowMessage("\\n<Man>Speaking of Sabasa's specialties, it has to be the coffee. Our beans are special, it's what makes our coffee unique from the other countries.")
  ShowMessageFace("",0,0,2,2)
  ShowMessage("\\n<Man>In all of our stores, even in the tavern, there's coffee. You should try it and taste Sabasa's speciality.")
  355("actor_label_jump")
  EndEventProcessing()
  DefineLabel("146")
  ShowMessageFace("sasori_fc1",1,0,2,3)
  ShowMessage("\\n<Scarlet>I love coffee as well. It's common to drink it when roaming the deserts.")
  EndEventProcessing()
  DefineLabel("150")
  ShowMessageFace("mummy_fc1",0,0,2,4)
  ShowMessage("\\n<Patra>Coffee, huh? Its scent hasn't changed since I was still alive.")
  EndEventProcessing()
  0()



EVENT   47
 PAGE   1
  ShowMessageFace("",0,0,2,1)
  ShowMessage("\\n<Traveling Merchant>How do I say this... Sabasa is extremely large. I mean, it takes full advantage of the vast space available in the desert.")
  ShowMessageFace("",0,0,2,2)
  ShowMessage("\\n<Traveling Merchant>It's fine to have a big city, but it also makes getting around it a pain.")
  355("actor_label_jump")
  EndEventProcessing()
  DefineLabel("101")
  ShowMessageFace("cent2_fc1",1,0,2,3)
  ShowMessage("\\n<Lihitinu>I can freely run around even whem I'm inside the city, it's like a dream come true♪.")
  EndEventProcessing()
  DefineLabel("148")
  ShowMessageFace("datyou_fc1",0,0,2,4)
  ShowMessage("\\n<Miu>Is that so? It would be stupid if you couldn't considering how large it is.")
  EndEventProcessing()
  0()



EVENT   48
 PAGE   1
  ShowMessageFace("",0,0,2,1)
  ShowMessage("\\n<Young Woman>These earrings are cute...")
  355("actor_label_jump")
  EndEventProcessing()
  DefineLabel("80")
  ShowMessageFace("orc_fc1",0,0,2,2)
  ShowMessage("\\n<Hip>What do you think about earrings on pig ears?")
  EndEventProcessing()
  DefineLabel("124")
  ShowMessageFace("arikui_fc1",0,0,2,3)
  ShowMessage("\\n<Kyona>Human clothes and accessories are popular among my friends. Maybe I should buy some as souvenirs?")
  EndEventProcessing()
  0()



EVENT   29
 PAGE   1
  If(1,1028,0,7,2)
   ShowMessageFace("",0,0,2,1)
   ShowMessage("\\n<Old Woman>There's a rumor that an Assassin goes in and out from this house from time to time... It seems dangerous so I'd suggest you keep away from it.")
   EndEventProcessing()
   0()
  EndIf()
  If(1,1028,0,8,0)
   ShowMessageFace("",0,0,2,2)
   ShowMessage("\\n<Old Woman>Apparently, a person who contributed to resolving the Queen's case lived in this house. But that person was also part of the Assassin clan, how scary.")
   0()
  EndIf()
  355("actor_label_jump")
  EndEventProcessing()
  DefineLabel("93")
  ShowMessageFace("liot_fc1",0,0,2,3)
  ShowMessage("\\n<Riot>It's natural that the clan to inherit genertions old assassination techniques would be be feared. Anyone would be terrified if an Assassin interfered with their daily lives.")
  EndEventProcessing()
  DefineLabel("102")
  ShowMessageFace("youko_fc1",2,0,2,4)
  ShowMessage("\\n<Kitsu>If I learned those assassination techniques, would everyone would be scared of me? But I'll have to if I want to become a true Ninja.")
  EndEventProcessing()
  0()



EVENT   49
 PAGE   1
  If(1,1028,0,7,2)
   ShowMessageFace("",0,0,2,1)
   ShowMessage("\\n<Gruff Man>There's a rumor going round that Queen Sara is a succubus and it's unexpectedly credible. Apparently there's many people who saw her monster appearance in person.")
   ShowMessageFace("",0,0,2,2)
   ShowMessage("\\n<Gruff Man>In that case, has the Queen turned into a succubus? Or maybe a succubus took the Queen's shape. Either would explain her sudden change of personality.")
   EndEventProcessing()
   0()
  EndIf()
  If(1,1028,0,8,0)
   ShowMessageFace("",0,0,2,3)
   ShowMessage("\\n<Gruff Man>In the end everything went back to normal but... The authenticity of the succubus theory remains a mystery.")
   ShowMessageFace("",0,0,2,4)
   ShowMessage("\\n<Gruff Man>Still, wouldn't it be really erotic if the Queen was an actual succubus?")
   355("actor_label_jump")
   EndEventProcessing()
   DefineLabel("56")
   ShowMessageFace("inp_fc1",0,0,2,5)
   ShowMessage("\\n<Rami>How about a Queen imp? Is that erotic?")
   ShowMessageFace("",0,0,2,6)
   ShowMessage("\\n<Gruff Man> An Imp would be kinda...")
   EndEventProcessing()
   DefineLabel("529")
   ShowMessageFace("sara_fc3",1,0,2,7)
   ShowMessage("\\n<Sara>This is troubling...")
   EndEventProcessing()
   0()
  EndIf()
  0()



EVENT   51
 PAGE   1
  ShowMessageFace("",0,0,2,1)
  ShowMessage("\\n<Boy>Let's pretend to be heroes, yaaaay!")
  355("actor_label_jump")
  EndEventProcessing()
  DefineLabel("525")
  ShowMessageFace("sonia_fc1",0,0,2,2)
  ShowMessage("\\n<Sonya>Hehe...when Luka was a kid he acted like this all the time.")
  EndEventProcessing()
  DefineLabel("118")
  ShowMessageFace("meia_fc1",0,0,2,3)
  ShowMessage("\\n<Meia>Young children are really energetic...ufufu.")
  EndEventProcessing()
  0()



EVENT   52
 PAGE   1
  If(1,1028,0,7,2)
   ShowMessageFace("",0,0,2,1)
   ShowMessage("\\n<Boy>I wonder what happened to lady Sara? Before she became Queen she was so gentle and...not perverted.")
   ShowMessageFace("",0,0,2,2)
   ShowMessage("\\n<Girl>Was it all just a façade?")
   0()
  EndIf()
  If(1,1028,0,8,1)
   ShowMessageFace("",0,0,2,3)
   ShowMessage("\\n<Boy>As I thought, lady Sara was always a gentle person!")
   ShowMessageFace("",0,0,2,4)
   ShowMessage("\\n<Girl>Men are so simple...")
   355("actor_label_jump")
   EndEventProcessing()
   DefineLabel("131")
   ShowMessageFace("doll_fc1",0,0,2,5)
   ShowMessage("\\n<Miyabi>They really are, aren't they...")
   EndEventProcessing()
   0()
  EndIf()
  0()



EVENT   53
 PAGE   1
  If(1,1028,0,7,2)
   ShowMessageFace("",0,0,2,1)
   ShowMessage("\\n<Boy>I wonder what happened to lady Sara? Before she became Queen she was so gentle and...not perverted.")
   ShowMessageFace("",0,0,2,2)
   ShowMessage("\\n<Girl>Was it all just a façade?")
   0()
  EndIf()
  If(1,1028,0,8,1)
   ShowMessageFace("",0,0,2,3)
   ShowMessage("\\n<Boy>As I thought, lady Sara was always a gentle person!")
   ShowMessageFace("",0,0,2,4)
   ShowMessage("\\n<Girl>Men are so simple...")
   355("actor_label_jump")
   EndEventProcessing()
   DefineLabel("131")
   ShowMessageFace("doll_fc1",0,0,2,5)
   ShowMessage("\\n<Miyabi>They really are, aren't they...")
   EndEventProcessing()
   0()
  EndIf()
  0()



EVENT   54
 PAGE   1
  ShowMessageFace("",0,0,2,1)
  ShowMessage("\\n<Girl>I'm a Princeess!")
  355("actor_label_jump")
  EndEventProcessing()
  DefineLabel("131")
  ShowMessageFace("doll_fc1",0,0,2,2)
  ShowMessage("\\n<Miyabi>I am a Princess...")
  EndEventProcessing()
  DefineLabel("529")
  ShowMessageFace("sara_fc3",0,0,2,3)
  ShowMessage("\\n<Sara>I'm a Princess too!")
  ShowMessageFace("sara_fc3",1,0,2,4)
  ShowMessage("\\n<Sara>...I just wanted to try saying that.")
  EndEventProcessing()
  0()



EVENT   55
 PAGE   1
  ShowMessageFace("",0,0,2,1)
  ShowMessage("\\n<Old Man>If Grangold's army attacks, I'll also take up a weapon and fight. I must protect my grandchildren.")
  ShowMessageFace("",0,0,2,2)
  ShowMessage("\\n<Old Man>But, Grangold is a really mysterious country. There's absolutely no information about what's happening inside it outside of rumors.")
  355("actor_label_jump")
  EndEventProcessing()
  DefineLabel("531")
  ShowMessageFace("saniria_fc2",0,0,2,3)
  ShowMessage("\\n<King of San Ilia>Even an old man like this is so determined. We'll have to end this war quickly.")
  EndEventProcessing()
  0()



EVENT   45
 PAGE   1
  ShowMessageFace("",0,0,2,1)
  ShowMessage("\\n<Minstrel>Sabasa has so many shops. But Grandeur in the North must have even more!")
  ShowMessageFace("",0,0,2,2)
  ShowMessage("\\n<Minstrel>It's the world's biggest business district, I wonder what kind of place it is. It feels like my chest is going to burst with expectation.")
  355("actor_label_jump")
  EndEventProcessing()
  DefineLabel("56")
  ShowMessageFace("inp_fc1",0,0,2,3)
  ShowMessage("\\n<Rami>My chest has swollen with expectation!")
  EndEventProcessing()
  DefineLabel("120")
  ShowMessageFace("page257_fc1",0,0,2,4)
  ShowMessage("\\n<Yoko>I look forward to visitimg business district. I wonder if they have an opera there?")
  EndEventProcessing()
  0()



EVENT   56
 PAGE   1
  ShowMessageFace("",0,0,2,1)
  ShowMessage("\\n<Soldier>There's a blacksmith here, but also training facilities. The beefy guys are sweating buckets in it!")
  355("actor_label_jump")
  EndEventProcessing()
  DefineLabel("120")
  ShowMessageFace("page257_fc1",0,0,2,2)
  ShowMessage("\\n<Yoko>Rather than beefiness, I prefer aesthetics.")
  EndEventProcessing()
  DefineLabel("540")
  ShowMessageFace("amira_fc1",0,0,2,3)
  ShowMessage("\\n<Amira>Woah, nice.")
  EndEventProcessing()
  0()



EVENT   57
 PAGE   1
  If(1,1028,0,7,2)
   ShowMessageFace("",0,0,2,1)
   ShowMessage("\\n<Guard>So tired...")
   0()
  EndIf()
  If(1,1028,0,8,0)
   ShowMessageFace("",0,0,2,2)
   ShowMessage("\\n<Guard>Welcome to Sabasa Castle. Our castle is open to all the public.")
   0()
  EndIf()
  0()



EVENT   58
 PAGE   1
  If(1,1028,0,7,2)
   ShowMessageFace("",0,0,2,1)
   ShowMessage("\\n<Guard>Hey, you need to pay a fee.")
   ShowMessageFace("",0,0,2,2)
   ShowMessage("\\n<Guard>...Actually, never mind. You guys look strong.")
   If(0,6,0)
    ShowMessageFace("sonia_fc4",0,0,2,3)
    ShowMessage("\\n<Sonya>The military regulations have really gone down hill...")
    0()
   EndIf()
   0()
  EndIf()
  If(1,1028,0,8,0)
   ShowMessageFace("",0,0,2,4)
   ShowMessage("\\n<Guard>Welcome to Sabasa Castle. Our castle is open to the public.")
   0()
  EndIf()
  0()



EVENT   36
 PAGE   1
  ShowMessageFace("slime_fc1",0,0,2,1)
  ShowMessage("\\n<Slime Girl>I'll catch some fiiish♪.")
  355("actor_label_jump")
  EndEventProcessing()
  DefineLabel("53")
  ShowMessageFace("slime_fc1",0,0,2,2)
  ShowMessage("\\n<Lime>Yaaay! I'll catch some tooo♪.")
  EndEventProcessing()
  0()



EVENT   59
 PAGE   1
  ShowMessageFace("",0,0,2,1)
  ShowMessage("\\n<Girl>I'll catch some tooo♪.")
  0()



EVENT   62
 PAGE   1
  If(1,1028,0,7,2)
   ShowMessageFace("",0,0,2,1)
   ShowMessage("\\n<Man>Is that really a Sabasa soldier? How pathethic.")
   EndEventProcessing()
   0()
  EndIf()
  If(1,1028,0,8,0)
   ShowMessageFace("",0,0,2,2)
   ShowMessage("\\n<Man>Their demeanor is weak but they're strong in drinking and in battle... That's how Sabasa's soldiers have to be!")
   EndEventProcessing()
   0()
  EndIf()
  0()



EVENT   60
 PAGE   1
  ShowMessageFace("",0,0,2,1)
  ShowMessage("\\n<Young Man>Honey.")
  ShowMessageFace("",0,0,2,2)
  ShowMessage("\\n<Young Girl>Darling.")
  ShowMessageFace("",0,0,2,3)
  ShowMessage("A young couple is flirting.")
  355("actor_label_jump")
  EndEventProcessing()
  DefineLabel("105")
  ShowMessageFace("mimic_fc1",2,0,2,4)
  ShowMessage("\\n<Minelli>Explode.")
  EndEventProcessing()
  DefineLabel("163")
  ShowMessageFace("lily_fc1",3,0,2,5)
  ShowMessage("\\n<Lily>What eyesores...")
  ShowMessageFace("",0,0,2,6)
  ShowMessage("\\n<Young Man>Woah, tentacles?!")
  ShowMessageFace("",0,0,2,7)
  ShowMessage("\\n<Young Girl>Hey, what are you?!")
  EndEventProcessing()
  0()



EVENT   61
 PAGE   1
  ShowMessageFace("",0,0,2,1)
  ShowMessage("\\n<Young Man>Honey.")
  ShowMessageFace("",0,0,2,2)
  ShowMessage("\\n<Young Girl>Darling.")
  ShowMessageFace("",0,0,2,3)
  ShowMessage("A young couple is flirting.")
  355("actor_label_jump")
  EndEventProcessing()
  DefineLabel("105")
  ShowMessageFace("mimic_fc1",2,0,2,4)
  ShowMessage("\\n<Minelli>Explode.")
  EndEventProcessing()
  DefineLabel("163")
  ShowMessageFace("lily_fc1",3,0,2,5)
  ShowMessage("\\n<Lily>What eyesores...")
  ShowMessageFace("",0,0,2,6)
  ShowMessage("\\n<Young Man>Woah, tentacles?!")
  ShowMessageFace("",0,0,2,7)
  ShowMessage("\\n<Young Girl>Hey, what are you?!")
  EndEventProcessing()
  0()



EVENT   64
 PAGE   1
  250(bytes(0x04,0x08,0x6f,0x3a,0x0c,0x52,0x50,0x47,0x3a,0x3a,0x53,0x45,0x08,0x3a,0x0a,0x40,0x6e,0x61,0x6d,0x65,0x49,0x22,0x0a,0x43,0x68,0x65,0x73,0x74,0x06,0x3a,0x06,0x45,0x54,0x3a,0x0b,0x40,0x70,0x69,0x74,0x63,0x68,0x69,0x69,0x3a,0x0c,0x40,0x76,0x6f,0x6c,0x75,0x6d,0x65,0x69,0x55))
  205(0,bytes(0x04,0x08,0x6f,0x3a,0x13,0x52,0x50,0x47,0x3a,0x3a,0x4d,0x6f,0x76,0x65,0x52,0x6f,0x75,0x74,0x65,0x09,0x3a,0x0c,0x40,0x72,0x65,0x70,0x65,0x61,0x74,0x46,0x3a,0x0f,0x40,0x73,0x6b,0x69,0x70,0x70,0x61,0x62,0x6c,0x65,0x46,0x3a,0x0a,0x40,0x77,0x61,0x69,0x74,0x54,0x3a,0x0a,0x40,0x6c,0x69,0x73,0x74,0x5b,0x0b,0x6f,0x3a,0x15,0x52,0x50,0x47,0x3a,0x3a,0x4d,0x6f,0x76,0x65,0x43,0x6f,0x6d,0x6d,0x61,0x6e,0x64,0x07,0x3a,0x0a,0x40,0x63,0x6f,0x64,0x65,0x69,0x29,0x3a,0x10,0x40,0x70,0x61,0x72,0x61,0x6d,0x65,0x74,0x65,0x72,0x73,0x5b,0x00,0x6f,0x3b,0x0a,0x07,0x3b,0x0b,0x69,0x16,0x3b,0x0c,0x5b,0x00,0x6f,0x3b,0x0a,0x07,0x3b,0x0b,0x69,0x14,0x3b,0x0c,0x5b,0x06,0x69,0x08,0x6f,0x3b,0x0a,0x07,0x3b,0x0b,0x69,0x17,0x3b,0x0c,0x5b,0x00,0x6f,0x3b,0x0a,0x07,0x3b,0x0b,0x69,0x14,0x3b,0x0c,0x5b,0x06,0x69,0x08,0x6f,0x3b,0x0a,0x07,0x3b,0x0b,0x69,0x00,0x3b,0x0c,0x5b,0x00))
  ChangeSelfSwitch("A",0)
  ChangeInventory_Item(32,0,0,1)
  0()
 PAGE   2
  // condition: self-switch A is ON
  0()



EVENT   65
 PAGE   1
  ShowMessageFace("",0,0,2,1)
  ShowMessage("\\n<Man>As you probably know, there's a Tartarus pit in Sabasa's rural location. To the Northeast land there's a border which leads there.")
  ShowMessageFace("",0,0,2,2)
  ShowMessage("\\n<Man>From where Sabasa's Northernmost town is to the East. Even normal adventurers won't go to that place.")
  If(1,1001,0,17,0)
   If(0,4,0)
    ShowMessageFace("alice_fc5",0,0,2,3)
    ShowMessage("\\n<Alice> It would be better to go to Tartarus after contracting with Gnome. We'll need to challenge her after preparing ourselves thoroughly...")
    0()
   EndIf()
   If(0,5,0)
    ShowMessageFace("iriasu_fc4",2,0,2,4)
    ShowMessage("\\n<Ilias>It appears that we should go to Tartarus after we deal with Gnome. It would be best to prepare thoroughly beforehand.")
    0()
   EndIf()
   0()
  EndIf()
  0()



EVENT   28
 PAGE   1
  If(1,1028,0,7,2)
   ShowMessageFace("",0,0,2,1)
   ShowMessage("\\n<Man>The Kings of Sabasa had an old Assassin group serve them for generations but... They were also discharged by Queen Sara.")
   ShowMessageFace("",0,0,2,2)
   ShowMessage("\\n<Man>There's a rumor that their leader is plotting to assassinate Queen Sara. If they really do intend to kill her...")
   ShowMessageFace("",0,0,2,3)
   ShowMessage("\\n<Man>...Will our country ever return to normal again?")
   EndEventProcessing()
   0()
  EndIf()
  If(1,1028,0,8,0)
   ShowMessageFace("",0,0,2,4)
   ShowMessage("\\n<Man>They said that the ex-Queen Sara had lost her reason. But is that really true?")
   ShowMessageFace("",0,0,2,5)
   ShowMessage("\\n<Man>Most people believe her. But I still wonder how if it really is true...")
   355("actor_label_jump")
   EndEventProcessing()
   DefineLabel("525")
   ShowMessageFace("sonia_fc2",2,0,2,6)
   ShowMessage("\\n<Sonya>There's nothing we can do about the people doubting it...")
   EndEventProcessing()
   DefineLabel("529")
   ShowMessageFace("sara_fc3",1,0,2,7)
   ShowMessage("\\n<Sara>I will do all I can to recover my honor.")
   EndEventProcessing()
   0()
  EndIf()
  0()



EVENT   66
 PAGE   1
  ShowMessageFace("",0,0,2,1)
  ShowMessage("\\n<Man>West of here there's the Witch Hunt Village. What was it's name? Magi...? Witch Hunt Village is good enough a name.")
  ShowMessageFace("",0,0,2,2)
  ShowMessage("\\n<Man>In that village there have been witch hunts since long past, hence the name. But recently, a certain witch has taken over that village.")
  ShowMessageFace("",0,0,2,3)
  ShowMessage("\\n<Man>Whew, the countryside sure is scary... It's the city dwellers' illusion that the monsters there are naive compared to them.")
  355("actor_label_jump")
  EndEventProcessing()
  DefineLabel("163")
  ShowMessageFace("lily_fc1",5,0,2,4)
  ShowMessage("\\n<Lily>It's not like I took over the village. You aren't wrong about the countryside being scary though.")
  EndEventProcessing()
  DefineLabel("167")
  ShowMessageFace("lusia_fc1",2,0,2,5)
  ShowMessage("\\n<Lucia>The information you have differs a little from the truth. I guess it's prejudice...")
  EndEventProcessing()
  0()



EVENT   68
 PAGE   1
  ShowMessageFace("",0,0,2,1)
  ShowMessage("\\n<Man>In Grandeur, there's a large casino. I look forward visiting it as I'm busy working most days.")
  355("actor_label_jump")
  EndEventProcessing()
  DefineLabel("121")
  ShowMessageFace("page65537_fc1",2,0,2,2)
  ShowMessage("\\n<Cornelia>A casino... Honestly, I'm not that interested in it.")
  EndEventProcessing()
  DefineLabel("143")
  ShowMessageFace("eva_fc1",0,0,2,3)
  ShowMessage("\\n<Eva>Casino! A chance to get rich quick, right? I have quite good luck y'know.")
  EndEventProcessing()
  0()



EVENT   71
 PAGE   1
  ShowMessageFace("",0,0,2,1)
  ShowMessage("\\n<Sheep>MEeee...")
  355("actor_label_jump")
  EndEventProcessing()
  DefineLabel("74")
  ShowMessageFace("usagi_fc1",0,0,2,2)
  ShowMessage("\\n<Barnny>This sheepy is a good kid. She doesn't drink lots of alcohol and doesn't cause trouble all the time either.Unlike most of her kind.")
  If(4,75,0)
   ShowMessageFace("hituzi_fc1",3,0,2,3)
   ShowMessage("\\n<Mary>Aren't your implications blatant, my bunny...")
   0()
  EndIf()
  EndEventProcessing()
  DefineLabel("75")
  ShowMessageFace("hituzi_fc1",3,0,2,4)
  ShowMessage("\\n<Mary>MEEeee!")
  EndEventProcessing()
  0()



EVENT   50
 PAGE   1
  ShowMessageFace("",0,0,2,1)
  ShowMessage("\\n<Strong Man>The folks from outside often misunderstand this. But the towns in the desert aren't so harsh as long as you don't stay on the sun for too long.")
  ShowMessageFace("",0,0,2,2)
  ShowMessage("\\n<Strong Man>Rather, it's worse to stay in a moist region... Sabasa is much easier to live in compared to those places.")
  355("actor_label_jump")
  EndEventProcessing()
  DefineLabel("100")
  ShowMessageFace("rahure_fc1",0,0,2,3)
  ShowMessage("\\n<Fleesia>But I love moist places. There, I can spread plenty of fragrance...")
  EndEventProcessing()
  DefineLabel("102")
  ShowMessageFace("youko_fc1",2,0,2,4)
  ShowMessage("\\n<Kitsu>But I have fluffy fur so it's even hotter for me!")
  EndEventProcessing()
  DefineLabel("103")
  ShowMessageFace("kamuro_fc1",2,0,2,5)
  ShowMessage("\\n<Kamuro>It's very hot in these clothes... My tail feels really hot...hauu...")
  EndEventProcessing()
  0()



EVENT   72
 PAGE   1
  ShowMessageFace("wani_fc1",0,0,2,1)
  ShowMessage("\\n<Crocodile Girl>GAaaw...")
  ShowMessageFace("",0,0,2,2)
  ShowMessage("The Crocodile Girl's lower mouth opened wide!")
  ShowMessageFace("wani_fc1",0,0,2,3)
  ShowMessage("\\n<Crocodile Girl>Fwaaa...")
  ShowMessageFace("",0,0,2,4)
  ShowMessage("...Apparently it was just a yawn.")
  355("actor_label_jump")
  EndEventProcessing()
  DefineLabel("154")
  ShowMessageFace("wani_fc1",0,0,2,5)
  ShowMessage("\\n<Gaa>Hello.")
  ShowMessageFace("wani_fc1",0,0,2,6)
  ShowMessage("\\n<Crocodile Girl>Hello...")
  EndEventProcessing()
  0()



EVENT   74
 PAGE   1
  ShowMessageFace("",0,0,2,1)
  ShowMessage("\\n<Cactus Girl>I am a noble Cactus Girl. I wish this city was a little more noble than it is now.")
  ShowMessageFace("",0,0,2,2)
  ShowMessage("\\n<Cactus Girl>I wonder if I would be able to move into Grandeur's high-class residential area? It is fitting for my nobility, after all.")
  355("actor_label_jump")
  EndEventProcessing()
  DefineLabel("108")
  ShowMessageFace("kai_fc1",0,0,2,3)
  ShowMessage("\\n<Shelly>A luxury residence... It's a good place to live in, with a husband.")
  EndEventProcessing()
  DefineLabel("143")
  ShowMessageFace("eva_fc1",2,0,2,4)
  ShowMessage("\\n<Eva>Hmph... That high-class residential area should just be burnt down.")
  EndEventProcessing()
  DefineLabel("147")
  ShowMessageFace("saboten_fc1",0,0,2,5)
  ShowMessage("\\n<Casta>That sounds good. Once our journey is over, maybe I could spend some leisure time there?")
  EndEventProcessing()
  0()



EVENT   75
 PAGE   1
  250(bytes(0x04,0x08,0x6f,0x3a,0x0c,0x52,0x50,0x47,0x3a,0x3a,0x53,0x45,0x08,0x3a,0x0a,0x40,0x6e,0x61,0x6d,0x65,0x49,0x22,0x0a,0x49,0x74,0x65,0x6d,0x31,0x06,0x3a,0x06,0x45,0x54,0x3a,0x0b,0x40,0x70,0x69,0x74,0x63,0x68,0x69,0x69,0x3a,0x0c,0x40,0x76,0x6f,0x6c,0x75,0x6d,0x65,0x69,0x55))
  ChangeSelfSwitch("A",0)
  ChangeInventory_Item(20,0,0,1)
  0()
 PAGE   2
  // condition: self-switch A is ON
  0()



EVENT   76
 PAGE   1
  250(bytes(0x04,0x08,0x6f,0x3a,0x0c,0x52,0x50,0x47,0x3a,0x3a,0x53,0x45,0x08,0x3a,0x0a,0x40,0x6e,0x61,0x6d,0x65,0x49,0x22,0x0a,0x49,0x74,0x65,0x6d,0x31,0x06,0x3a,0x06,0x45,0x54,0x3a,0x0b,0x40,0x70,0x69,0x74,0x63,0x68,0x69,0x69,0x3a,0x0c,0x40,0x76,0x6f,0x6c,0x75,0x6d,0x65,0x69,0x55))
  ChangeSelfSwitch("A",0)
  ChangeInventory_Item(338,0,0,1)
  0()
 PAGE   2
  // condition: self-switch A is ON
  0()



EVENT   77
 PAGE   1
  250(bytes(0x04,0x08,0x6f,0x3a,0x0c,0x52,0x50,0x47,0x3a,0x3a,0x53,0x45,0x08,0x3a,0x0a,0x40,0x6e,0x61,0x6d,0x65,0x49,0x22,0x0a,0x49,0x74,0x65,0x6d,0x31,0x06,0x3a,0x06,0x45,0x54,0x3a,0x0b,0x40,0x70,0x69,0x74,0x63,0x68,0x69,0x69,0x3a,0x0c,0x40,0x76,0x6f,0x6c,0x75,0x6d,0x65,0x69,0x55))
  ChangeSelfSwitch("A",0)
  ChangeInventory_Item(26,0,0,1)
  0()
 PAGE   2
  // condition: self-switch A is ON
  0()



EVENT   78
 PAGE   1
  250(bytes(0x04,0x08,0x6f,0x3a,0x0c,0x52,0x50,0x47,0x3a,0x3a,0x53,0x45,0x08,0x3a,0x0a,0x40,0x6e,0x61,0x6d,0x65,0x49,0x22,0x0a,0x49,0x74,0x65,0x6d,0x31,0x06,0x3a,0x06,0x45,0x54,0x3a,0x0b,0x40,0x70,0x69,0x74,0x63,0x68,0x69,0x69,0x3a,0x0c,0x40,0x76,0x6f,0x6c,0x75,0x6d,0x65,0x69,0x55))
  ChangeSelfSwitch("A",0)
  ChangeInventory_Item(68,0,0,1)
  0()
 PAGE   2
  // condition: self-switch A is ON
  0()



EVENT   30
 PAGE   1
  250(bytes(0x04,0x08,0x6f,0x3a,0x0c,0x52,0x50,0x47,0x3a,0x3a,0x53,0x45,0x08,0x3a,0x0a,0x40,0x6e,0x61,0x6d,0x65,0x49,0x22,0x09,0x4d,0x6f,0x76,0x65,0x06,0x3a,0x06,0x45,0x54,0x3a,0x0b,0x40,0x70,0x69,0x74,0x63,0x68,0x69,0x69,0x3a,0x0c,0x40,0x76,0x6f,0x6c,0x75,0x6d,0x65,0x69,0x55))
  TeleportPlayer(0,2,103,293,2,0)
  0()



EVENT   26
 PAGE   1
  250(bytes(0x04,0x08,0x6f,0x3a,0x0c,0x52,0x50,0x47,0x3a,0x3a,0x53,0x45,0x08,0x3a,0x0a,0x40,0x6e,0x61,0x6d,0x65,0x49,0x22,0x09,0x4d,0x6f,0x76,0x65,0x06,0x3a,0x06,0x45,0x54,0x3a,0x0b,0x40,0x70,0x69,0x74,0x63,0x68,0x69,0x69,0x3a,0x0c,0x40,0x76,0x6f,0x6c,0x75,0x6d,0x65,0x69,0x55))
  TeleportPlayer(0,2,103,293,2,0)
  0()



EVENT   31
 PAGE   1
  ChangeSelfSwitch("A",0)
  ShowMessageFace("ruka_fc1",0,0,2,1)
  ShowMessage("\\n<Luka>We did it! We arrived at Sabasa Castle!")
  If(0,6,0)
   ShowMessageFace("sonia_fc3",6,0,2,2)
   ShowMessage("\\n<Sonya>A castle town in the desert, it's so laaarge♪.")
   0()
  EndIf()
  If(4,118,0)
   ShowMessageFace("meia_fc1",0,0,2,3)
   ShowMessage("\\n<Meia>It's a bit of a harsh environment for mermaids to live in. Ahh, my throat is already dry...")
   0()
  EndIf()
  If(1,1001,0,17,1)
   If(0,4,0)
    ShowMessageFace("alice_fc5",0,0,2,4)
    ShowMessage("\\n<Alice>Well then, let's start gathering information right away. About Gnome and the Northern Tartarus pit...mm?")
    0()
   EndIf()
   If(0,5,0)
    ShowMessageFace("iriasu_fc4",0,0,2,5)
    ShowMessage("\\n<Ilias>Well then, let's start gathering information immediately. About Gnome and the Northern Tartarus pit...Oh?")
    0()
   EndIf()
   0()
  Else()
   If(0,4,0)
    ShowMessageFace("alice_fc5",0,0,2,6)
    ShowMessage("\\n<Alice>Well then, let's start gathering information right away. About Gnome and the Northern Tartarus pit...mm?")
    0()
   EndIf()
   If(0,5,0)
    ShowMessageFace("iriasu_fc4",0,0,2,7)
    ShowMessage("\\n<Ilias>Well then, let's start gathering information immediately. About Gnome and the Northern Tartarus pit...Oh?")
    0()
   EndIf()
   0()
  EndIf()
  205(-1,bytes(0x04,0x08,0x6f,0x3a,0x13,0x52,0x50,0x47,0x3a,0x3a,0x4d,0x6f,0x76,0x65,0x52,0x6f,0x75,0x74,0x65,0x09,0x3a,0x0c,0x40,0x72,0x65,0x70,0x65,0x61,0x74,0x46,0x3a,0x0f,0x40,0x73,0x6b,0x69,0x70,0x70,0x61,0x62,0x6c,0x65,0x46,0x3a,0x0a,0x40,0x77,0x61,0x69,0x74,0x46,0x3a,0x0a,0x40,0x6c,0x69,0x73,0x74,0x5b,0x07,0x6f,0x3a,0x15,0x52,0x50,0x47,0x3a,0x3a,0x4d,0x6f,0x76,0x65,0x43,0x6f,0x6d,0x6d,0x61,0x6e,0x64,0x07,0x3a,0x0a,0x40,0x63,0x6f,0x64,0x65,0x69,0x16,0x3a,0x10,0x40,0x70,0x61,0x72,0x61,0x6d,0x65,0x74,0x65,0x72,0x73,0x5b,0x00,0x6f,0x3b,0x0a,0x07,0x3b,0x0b,0x69,0x00,0x3b,0x0c,0x5b,0x00))
  205(32,bytes(0x04,0x08,0x6f,0x3a,0x13,0x52,0x50,0x47,0x3a,0x3a,0x4d,0x6f,0x76,0x65,0x52,0x6f,0x75,0x74,0x65,0x09,0x3a,0x0c,0x40,0x72,0x65,0x70,0x65,0x61,0x74,0x46,0x3a,0x0f,0x40,0x73,0x6b,0x69,0x70,0x70,0x61,0x62,0x6c,0x65,0x46,0x3a,0x0a,0x40,0x77,0x61,0x69,0x74,0x46,0x3a,0x0a,0x40,0x6c,0x69,0x73,0x74,0x5b,0x07,0x6f,0x3a,0x15,0x52,0x50,0x47,0x3a,0x3a,0x4d,0x6f,0x76,0x65,0x43,0x6f,0x6d,0x6d,0x61,0x6e,0x64,0x07,0x3a,0x0a,0x40,0x63,0x6f,0x64,0x65,0x69,0x08,0x3a,0x10,0x40,0x70,0x61,0x72,0x61,0x6d,0x65,0x74,0x65,0x72,0x73,0x5b,0x00,0x6f,0x3b,0x0a,0x07,0x3b,0x0b,0x69,0x00,0x3b,0x0c,0x5b,0x00))
  205(33,bytes(0x04,0x08,0x6f,0x3a,0x13,0x52,0x50,0x47,0x3a,0x3a,0x4d,0x6f,0x76,0x65,0x52,0x6f,0x75,0x74,0x65,0x09,0x3a,0x0c,0x40,0x72,0x65,0x70,0x65,0x61,0x74,0x46,0x3a,0x0f,0x40,0x73,0x6b,0x69,0x70,0x70,0x61,0x62,0x6c,0x65,0x46,0x3a,0x0a,0x40,0x77,0x61,0x69,0x74,0x54,0x3a,0x0a,0x40,0x6c,0x69,0x73,0x74,0x5b,0x08,0x6f,0x3a,0x15,0x52,0x50,0x47,0x3a,0x3a,0x4d,0x6f,0x76,0x65,0x43,0x6f,0x6d,0x6d,0x61,0x6e,0x64,0x07,0x3a,0x0a,0x40,0x63,0x6f,0x64,0x65,0x69,0x07,0x3a,0x10,0x40,0x70,0x61,0x72,0x61,0x6d,0x65,0x74,0x65,0x72,0x73,0x5b,0x00,0x6f,0x3b,0x0a,0x07,0x3b,0x0b,0x69,0x07,0x3b,0x0c,0x5b,0x00,0x6f,0x3b,0x0a,0x07,0x3b,0x0b,0x69,0x00,0x3b,0x0c,0x5b,0x00))
  ShowMessageFace("",0,0,2,8)
  ShowMessage("\\n<Guard A>Stop, travelers!")
  ShowMessageFace("",0,0,2,9)
  ShowMessage("\\n<Guard B>You look suspicious... definitely Grangold spies!")
  ShowMessageFace("",0,0,2,10)
  ShowMessage("\\n<Guard A>But we'll overlook you as a special case. We aren't monsters, after all.")
  ShowMessageFace("",0,0,2,11)
  ShowMessage("\\n<Guard B>We'll let you off this once for 100G.")
  If(0,6,0)
   ShowMessageFace("sonia_fc3",2,0,2,12)
   ShowMessage("\\n<Sonya>This country's regular soldiers request a bribe in broad daylight?!")
   0()
  EndIf()
  If(0,4,0)
   ShowMessageFace("alice_fc5",0,0,2,13)
   ShowMessage("\\n<Alice>Strange... I heard Sabasa's military is of very high quality. It's unthinkable to have such thugs guarding the gates.")
   0()
  EndIf()
  If(0,5,0)
   ShowMessageFace("iriasu_fc4",2,0,2,14)
   ShowMessage("\\n<Ilias>How strange... Sabasa's military discipline shouldn't be this unhinged. The Sabasa King I know wouldn't allow soldiers to cause such disorder.")
   0()
  EndIf()
  ShowMessageFace("",0,0,2,15)
  ShowMessage("\\n<Guard A>What are you talking about, we are Queen Sara's personal guards!")
  ShowMessageFace("",0,0,2,16)
  ShowMessage("\\n<Guard B>If you go against us you'll go to jail!")
  DefineLabel("1")
  If(0,6,0)
   ShowMessageFace("sonia_fc2",2,0,2,17)
   ShowMessage("\\n<Sonya>What do we do, Luka?")
   0()
  EndIf()
  ShowMessageFace("ruka_fc1",0,0,2,18)
  ShowMessage("\\n<Luka>......")
  ShowChoices(strings("Pay 100G","Knock them down"),0)
  IfPlayerPicksChoice(0,null)
   If(7,100,0)
    125(1,0,100)
    ShowMessageFace("",0,0,2,19)
    ShowMessage("Luka paid 100G...")
    ShowMessageFace("",0,0,2,20)
    ShowMessage("\\n<Guard A>Great, nice profit today!")
    ShowMessageFace("",0,0,2,21)
    ShowMessage("\\n<Guard B>Let's go get something to drink with this money!")
    205(-1,bytes(0x04,0x08,0x6f,0x3a,0x13,0x52,0x50,0x47,0x3a,0x3a,0x4d,0x6f,0x76,0x65,0x52,0x6f,0x75,0x74,0x65,0x09,0x3a,0x0c,0x40,0x72,0x65,0x70,0x65,0x61,0x74,0x46,0x3a,0x0f,0x40,0x73,0x6b,0x69,0x70,0x70,0x61,0x62,0x6c,0x65,0x46,0x3a,0x0a,0x40,0x77,0x61,0x69,0x74,0x46,0x3a,0x0a,0x40,0x6c,0x69,0x73,0x74,0x5b,0x07,0x6f,0x3a,0x15,0x52,0x50,0x47,0x3a,0x3a,0x4d,0x6f,0x76,0x65,0x43,0x6f,0x6d,0x6d,0x61,0x6e,0x64,0x07,0x3a,0x0a,0x40,0x63,0x6f,0x64,0x65,0x69,0x18,0x3a,0x10,0x40,0x70,0x61,0x72,0x61,0x6d,0x65,0x74,0x65,0x72,0x73,0x5b,0x00,0x6f,0x3b,0x0a,0x07,0x3b,0x0b,0x69,0x00,0x3b,0x0c,0x5b,0x00))
    205(32,bytes(0x04,0x08,0x6f,0x3a,0x13,0x52,0x50,0x47,0x3a,0x3a,0x4d,0x6f,0x76,0x65,0x52,0x6f,0x75,0x74,0x65,0x09,0x3a,0x0c,0x40,0x72,0x65,0x70,0x65,0x61,0x74,0x46,0x3a,0x0f,0x40,0x73,0x6b,0x69,0x70,0x70,0x61,0x62,0x6c,0x65,0x46,0x3a,0x0a,0x40,0x77,0x61,0x69,0x74,0x46,0x3a,0x0a,0x40,0x6c,0x69,0x73,0x74,0x5b,0x18,0x6f,0x3a,0x15,0x52,0x50,0x47,0x3a,0x3a,0x4d,0x6f,0x76,0x65,0x43,0x6f,0x6d,0x6d,0x61,0x6e,0x64,0x07,0x3a,0x0a,0x40,0x63,0x6f,0x64,0x65,0x69,0x09,0x3a,0x10,0x40,0x70,0x61,0x72,0x61,0x6d,0x65,0x74,0x65,0x72,0x73,0x5b,0x00,0x6f,0x3b,0x0a,0x07,0x3b,0x0b,0x69,0x09,0x3b,0x0c,0x5b,0x00,0x6f,0x3b,0x0a,0x07,0x3b,0x0b,0x69,0x09,0x3b,0x0c,0x5b,0x00,0x6f,0x3b,0x0a,0x07,0x3b,0x0b,0x69,0x09,0x3b,0x0c,0x5b,0x00,0x6f,0x3b,0x0a,0x07,0x3b,0x0b,0x69,0x09,0x3b,0x0c,0x5b,0x00,0x6f,0x3b,0x0a,0x07,0x3b,0x0b,0x69,0x09,0x3b,0x0c,0x5b,0x00,0x6f,0x3b,0x0a,0x07,0x3b,0x0b,0x69,0x07,0x3b,0x0c,0x5b,0x00,0x6f,0x3b,0x0a,0x07,0x3b,0x0b,0x69,0x07,0x3b,0x0c,0x5b,0x00,0x6f,0x3b,0x0a,0x07,0x3b,0x0b,0x69,0x07,0x3b,0x0c,0x5b,0x00,0x6f,0x3b,0x0a,0x07,0x3b,0x0b,0x69,0x07,0x3b,0x0c,0x5b,0x00,0x6f,0x3b,0x0a,0x07,0x3b,0x0b,0x69,0x07,0x3b,0x0c,0x5b,0x00,0x6f,0x3b,0x0a,0x07,0x3b,0x0b,0x69,0x07,0x3b,0x0c,0x5b,0x00,0x6f,0x3b,0x0a,0x07,0x3b,0x0b,0x69,0x07,0x3b,0x0c,0x5b,0x00,0x6f,0x3b,0x0a,0x07,0x3b,0x0b,0x69,0x07,0x3b,0x0c,0x5b,0x00,0x6f,0x3b,0x0a,0x07,0x3b,0x0b,0x69,0x07,0x3b,0x0c,0x5b,0x00,0x6f,0x3b,0x0a,0x07,0x3b,0x0b,0x69,0x07,0x3b,0x0c,0x5b,0x00,0x6f,0x3b,0x0a,0x07,0x3b,0x0b,0x69,0x07,0x3b,0x0c,0x5b,0x00,0x6f,0x3b,0x0a,0x07,0x3b,0x0b,0x69,0x07,0x3b,0x0c,0x5b,0x00,0x6f,0x3b,0x0a,0x07,0x3b,0x0b,0x69,0x00,0x3b,0x0c,0x5b,0x00))
    205(33,bytes(0x04,0x08,0x6f,0x3a,0x13,0x52,0x50,0x47,0x3a,0x3a,0x4d,0x6f,0x76,0x65,0x52,0x6f,0x75,0x74,0x65,0x09,0x3a,0x0c,0x40,0x72,0x65,0x70,0x65,0x61,0x74,0x46,0x3a,0x0f,0x40,0x73,0x6b,0x69,0x70,0x70,0x61,0x62,0x6c,0x65,0x46,0x3a,0x0a,0x40,0x77,0x61,0x69,0x74,0x46,0x3a,0x0a,0x40,0x6c,0x69,0x73,0x74,0x5b,0x1c,0x6f,0x3a,0x15,0x52,0x50,0x47,0x3a,0x3a,0x4d,0x6f,0x76,0x65,0x43,0x6f,0x6d,0x6d,0x61,0x6e,0x64,0x07,0x3a,0x0a,0x40,0x63,0x6f,0x64,0x65,0x69,0x09,0x3a,0x10,0x40,0x70,0x61,0x72,0x61,0x6d,0x65,0x74,0x65,0x72,0x73,0x5b,0x00,0x6f,0x3b,0x0a,0x07,0x3b,0x0b,0x69,0x09,0x3b,0x0c,0x5b,0x00,0x6f,0x3b,0x0a,0x07,0x3b,0x0b,0x69,0x09,0x3b,0x0c,0x5b,0x00,0x6f,0x3b,0x0a,0x07,0x3b,0x0b,0x69,0x09,0x3b,0x0c,0x5b,0x00,0x6f,0x3b,0x0a,0x07,0x3b,0x0b,0x69,0x09,0x3b,0x0c,0x5b,0x00,0x6f,0x3b,0x0a,0x07,0x3b,0x0b,0x69,0x09,0x3b,0x0c,0x5b,0x00,0x6f,0x3b,0x0a,0x07,0x3b,0x0b,0x69,0x07,0x3b,0x0c,0x5b,0x00,0x6f,0x3b,0x0a,0x07,0x3b,0x0b,0x69,0x07,0x3b,0x0c,0x5b,0x00,0x6f,0x3b,0x0a,0x07,0x3b,0x0b,0x69,0x07,0x3b,0x0c,0x5b,0x00,0x6f,0x3b,0x0a,0x07,0x3b,0x0b,0x69,0x07,0x3b,0x0c,0x5b,0x00,0x6f,0x3b,0x0a,0x07,0x3b,0x0b,0x69,0x07,0x3b,0x0c,0x5b,0x00,0x6f,0x3b,0x0a,0x07,0x3b,0x0b,0x69,0x07,0x3b,0x0c,0x5b,0x00,0x6f,0x3b,0x0a,0x07,0x3b,0x0b,0x69,0x07,0x3b,0x0c,0x5b,0x00,0x6f,0x3b,0x0a,0x07,0x3b,0x0b,0x69,0x07,0x3b,0x0c,0x5b,0x00,0x6f,0x3b,0x0a,0x07,0x3b,0x0b,0x69,0x07,0x3b,0x0c,0x5b,0x00,0x6f,0x3b,0x0a,0x07,0x3b,0x0b,0x69,0x07,0x3b,0x0c,0x5b,0x00,0x6f,0x3b,0x0a,0x07,0x3b,0x0b,0x69,0x07,0x3b,0x0c,0x5b,0x00,0x6f,0x3b,0x0a,0x07,0x3b,0x0b,0x69,0x07,0x3b,0x0c,0x5b,0x00,0x6f,0x3b,0x0a,0x07,0x3b,0x0b,0x69,0x07,0x3b,0x0c,0x5b,0x00,0x6f,0x3b,0x0a,0x07,0x3b,0x0b,0x69,0x07,0x3b,0x0c,0x5b,0x00,0x6f,0x3b,0x0a,0x07,0x3b,0x0b,0x69,0x07,0x3b,0x0c,0x5b,0x00,0x6f,0x3b,0x0a,0x07,0x3b,0x0b,0x69,0x07,0x3b,0x0c,0x5b,0x00,0x6f,0x3b,0x0a,0x07,0x3b,0x0b,0x69,0x00,0x3b,0x0c,0x5b,0x00))
    0()
   Else()
    ShowMessageFace("",0,0,2,22)
    ShowMessage("\\n<Guard A>Don't screw around, there isn't enough!")
    JumpToLabel("1")
    0()
   EndIf()
   0()
  IfPlayerPicksChoice(1,null)
   205(-1,bytes(0x04,0x08,0x6f,0x3a,0x13,0x52,0x50,0x47,0x3a,0x3a,0x4d,0x6f,0x76,0x65,0x52,0x6f,0x75,0x74,0x65,0x09,0x3a,0x0c,0x40,0x72,0x65,0x70,0x65,0x61,0x74,0x46,0x3a,0x0f,0x40,0x73,0x6b,0x69,0x70,0x70,0x61,0x62,0x6c,0x65,0x46,0x3a,0x0a,0x40,0x77,0x61,0x69,0x74,0x46,0x3a,0x0a,0x40,0x6c,0x69,0x73,0x74,0x5b,0x09,0x6f,0x3a,0x15,0x52,0x50,0x47,0x3a,0x3a,0x4d,0x6f,0x76,0x65,0x43,0x6f,0x6d,0x6d,0x61,0x6e,0x64,0x07,0x3a,0x0a,0x40,0x63,0x6f,0x64,0x65,0x69,0x16,0x3a,0x10,0x40,0x70,0x61,0x72,0x61,0x6d,0x65,0x74,0x65,0x72,0x73,0x5b,0x00,0x6f,0x3b,0x0a,0x07,0x3b,0x0b,0x69,0x17,0x3b,0x0c,0x5b,0x00,0x6f,0x3b,0x0a,0x07,0x3b,0x0b,0x69,0x18,0x3b,0x0c,0x5b,0x00,0x6f,0x3b,0x0a,0x07,0x3b,0x0b,0x69,0x00,0x3b,0x0c,0x5b,0x00))
   250(bytes(0x04,0x08,0x6f,0x3a,0x0c,0x52,0x50,0x47,0x3a,0x3a,0x53,0x45,0x08,0x3a,0x0a,0x40,0x6e,0x61,0x6d,0x65,0x49,0x22,0x0e,0x6d,0x6f,0x6e,0x5f,0x66,0x61,0x6c,0x6c,0x32,0x06,0x3a,0x06,0x45,0x54,0x3a,0x0b,0x40,0x70,0x69,0x74,0x63,0x68,0x69,0x69,0x3a,0x0c,0x40,0x76,0x6f,0x6c,0x75,0x6d,0x65,0x69,0x69))
   205(32,bytes(0x04,0x08,0x6f,0x3a,0x13,0x52,0x50,0x47,0x3a,0x3a,0x4d,0x6f,0x76,0x65,0x52,0x6f,0x75,0x74,0x65,0x09,0x3a,0x0c,0x40,0x72,0x65,0x70,0x65,0x61,0x74,0x46,0x3a,0x0f,0x40,0x73,0x6b,0x69,0x70,0x70,0x61,0x62,0x6c,0x65,0x46,0x3a,0x0a,0x40,0x77,0x61,0x69,0x74,0x46,0x3a,0x0a,0x40,0x6c,0x69,0x73,0x74,0x5b,0x09,0x6f,0x3a,0x15,0x52,0x50,0x47,0x3a,0x3a,0x4d,0x6f,0x76,0x65,0x43,0x6f,0x6d,0x6d,0x61,0x6e,0x64,0x07,0x3a,0x0a,0x40,0x63,0x6f,0x64,0x65,0x69,0x2a,0x3a,0x10,0x40,0x70,0x61,0x72,0x61,0x6d,0x65,0x74,0x65,0x72,0x73,0x5b,0x00,0x6f,0x3b,0x0a,0x07,0x3b,0x0b,0x69,0x13,0x3b,0x0c,0x5b,0x07,0x69,0x00,0x69,0x09,0x6f,0x3b,0x0a,0x07,0x3b,0x0b,0x69,0x2c,0x3b,0x0c,0x5b,0x00,0x6f,0x3b,0x0a,0x07,0x3b,0x0b,0x69,0x00,0x3b,0x0c,0x5b,0x00))
   205(33,bytes(0x04,0x08,0x6f,0x3a,0x13,0x52,0x50,0x47,0x3a,0x3a,0x4d,0x6f,0x76,0x65,0x52,0x6f,0x75,0x74,0x65,0x09,0x3a,0x0c,0x40,0x72,0x65,0x70,0x65,0x61,0x74,0x46,0x3a,0x0f,0x40,0x73,0x6b,0x69,0x70,0x70,0x61,0x62,0x6c,0x65,0x46,0x3a,0x0a,0x40,0x77,0x61,0x69,0x74,0x46,0x3a,0x0a,0x40,0x6c,0x69,0x73,0x74,0x5b,0x09,0x6f,0x3a,0x15,0x52,0x50,0x47,0x3a,0x3a,0x4d,0x6f,0x76,0x65,0x43,0x6f,0x6d,0x6d,0x61,0x6e,0x64,0x07,0x3a,0x0a,0x40,0x63,0x6f,0x64,0x65,0x69,0x2a,0x3a,0x10,0x40,0x70,0x61,0x72,0x61,0x6d,0x65,0x74,0x65,0x72,0x73,0x5b,0x00,0x6f,0x3b,0x0a,0x07,0x3b,0x0b,0x69,0x13,0x3b,0x0c,0x5b,0x07,0x69,0x00,0x69,0x09,0x6f,0x3b,0x0a,0x07,0x3b,0x0b,0x69,0x2c,0x3b,0x0c,0x5b,0x00,0x6f,0x3b,0x0a,0x07,0x3b,0x0b,0x69,0x00,0x3b,0x0c,0x5b,0x00))
   ShowMessageFace("",0,0,2,23)
   ShowMessage("\\n<Guard A & B>UWAHHHH!")
   If(0,6,0)
    ShowMessageFace("sonia_fc3",2,0,2,24)
    ShowMessage("\\n<Sonya>So weak! How are they weaker than Iliasville's soldiers?!")
    0()
   Else()
    ShowMessageFace("ruka_fc1",0,0,2,25)
    ShowMessage("\\n<Luka>S-so weak.")
    0()
   EndIf()
   0()
  404()
  If(0,4,0)
   ShowMessageFace("alice_fc5",0,0,2,26)
   ShowMessage("\\n<Alice>They certainly weren't normal soldiers whether mentally or physically. Are these really the soldiers of Sabasa, that is said to be a military superpower?")
   0()
  EndIf()
  If(0,5,0)
   ShowMessageFace("iriasu_fc4",2,0,2,27)
   ShowMessage("\\n<Ilias>Both their body and mind is worthless. They don't seem like soldiers of Sabasa, that boasts of its military prowess.")
   0()
  EndIf()
  205(34,bytes(0x04,0x08,0x6f,0x3a,0x13,0x52,0x50,0x47,0x3a,0x3a,0x4d,0x6f,0x76,0x65,0x52,0x6f,0x75,0x74,0x65,0x09,0x3a,0x0c,0x40,0x72,0x65,0x70,0x65,0x61,0x74,0x46,0x3a,0x0f,0x40,0x73,0x6b,0x69,0x70,0x70,0x61,0x62,0x6c,0x65,0x46,0x3a,0x0a,0x40,0x77,0x61,0x69,0x74,0x54,0x3a,0x0a,0x40,0x6c,0x69,0x73,0x74,0x5b,0x09,0x6f,0x3a,0x15,0x52,0x50,0x47,0x3a,0x3a,0x4d,0x6f,0x76,0x65,0x43,0x6f,0x6d,0x6d,0x61,0x6e,0x64,0x07,0x3a,0x0a,0x40,0x63,0x6f,0x64,0x65,0x69,0x08,0x3a,0x10,0x40,0x70,0x61,0x72,0x61,0x6d,0x65,0x74,0x65,0x72,0x73,0x5b,0x00,0x6f,0x3b,0x0a,0x07,0x3b,0x0b,0x69,0x08,0x3b,0x0c,0x5b,0x00,0x6f,0x3b,0x0a,0x07,0x3b,0x0b,0x69,0x15,0x3b,0x0c,0x5b,0x00,0x6f,0x3b,0x0a,0x07,0x3b,0x0b,0x69,0x00,0x3b,0x0c,0x5b,0x00))
  ShowMessageFace("",0,0,2,28)
  ShowMessage("\\n<Youth>They are Queen Sara's personal guard... In other words, a bunch of thugs that were recruited recently.")
  ShowMessageFace("",0,0,2,29)
  ShowMessage("\\n<Youth>The last Sabasa King died and his daughter took over as Queen. Ever since then, this country's turned for the worse.")
  ShowMessageFace("",0,0,2,30)
  ShowMessage("\\n<Youth>Queen Sara forgot about politics and stopped taking anything seriously. She recruited a bunch of worthless thugs, and replaced the old Royal Guard with them.")
  ShowMessageFace("",0,0,2,31)
  ShowMessage("\\n<Youth>The loyal subjects who wanted to admonish her were all imprisoned or exiled. It's turned into a really awful country.")
  ShowMessageFace("",0,0,2,32)
  ShowMessage("\\n<Youth>Whoops... It would be bad if the guards heard me say this. You guys should be careful though.")
  205(34,bytes(0x04,0x08,0x6f,0x3a,0x13,0x52,0x50,0x47,0x3a,0x3a,0x4d,0x6f,0x76,0x65,0x52,0x6f,0x75,0x74,0x65,0x09,0x3a,0x0c,0x40,0x72,0x65,0x70,0x65,0x61,0x74,0x46,0x3a,0x0f,0x40,0x73,0x6b,0x69,0x70,0x70,0x61,0x62,0x6c,0x65,0x46,0x3a,0x0a,0x40,0x77,0x61,0x69,0x74,0x46,0x3a,0x0a,0x40,0x6c,0x69,0x73,0x74,0x5b,0x09,0x6f,0x3a,0x15,0x52,0x50,0x47,0x3a,0x3a,0x4d,0x6f,0x76,0x65,0x43,0x6f,0x6d,0x6d,0x61,0x6e,0x64,0x07,0x3a,0x0a,0x40,0x63,0x6f,0x64,0x65,0x69,0x07,0x3a,0x10,0x40,0x70,0x61,0x72,0x61,0x6d,0x65,0x74,0x65,0x72,0x73,0x5b,0x00,0x6f,0x3b,0x0a,0x07,0x3b,0x0b,0x69,0x07,0x3b,0x0c,0x5b,0x00,0x6f,0x3b,0x0a,0x07,0x3b,0x0b,0x69,0x17,0x3b,0x0c,0x5b,0x00,0x6f,0x3b,0x0a,0x07,0x3b,0x0b,0x69,0x00,0x3b,0x0c,0x5b,0x00))
  ShowMessageFace("ruka_fc1",0,0,2,33)
  ShowMessage("\\n<Luka>That sounds horrible... We need to do something about this new Queen!")
  ShowMessageFace("ruka_fc1",0,0,2,34)
  ShowMessage("\\n<Luka>All right, let's get going to the royal castle!")
  If(0,4,0)
   ShowMessageFace("alice_fc5",2,0,2,35)
   ShowMessage("\\n<Alice>Don't act without a plan, you fool. What do you think will happen after suddenly barging in?")
   ShowMessageFace("alice_fc5",0,0,2,36)
   ShowMessage("\\n<Alice>It's at times like this that we have to listen to what the local residents have to say about this first. Even if we are going to inquire with the Queen, let's first gather information in advance.")
   0()
  EndIf()
  If(0,5,0)
   ShowMessageFace("iriasu_fc4",2,0,2,37)
   ShowMessage("\\n<Ilias>What a rash and blind act. Are you out of your mind?")
   ShowMessageFace("iriasu_fc4",2,0,2,38)
   ShowMessage("\\n<Ilias>First, let's gather information. We can barge into the Queen's quarters afterwards.")
   0()
  EndIf()
  If(4,531,0)
   ShowMessageFace("saniria_fc2",0,0,2,39)
   ShowMessage("\\n<King of San Ilia>I've heard the rumors, but to think the political decay would have gone this far. Mainly because of my faith, I cannot leave this plight as it is.")
   0()
  EndIf()
  If(1,1001,0,17,1)
   If(0,6,0)
    ShowMessageFace("sonia_fc2",2,0,2,40)
    ShowMessage("\\n<Sonya>We'll be putting the Gnome and Tartarus cases aside for now. Let's ask around properly first and then meet with the Queen.")
    0()
   Else()
    ShowMessageFace("ruka_fc1",0,0,2,41)
    ShowMessage("\\n<Luka>We will have to put off Gnome's and the Tartarus pit off for now. Let's ask around first and then meet with the Queen!")
    0()
   EndIf()
   0()
  Else()
   If(0,6,0)
    ShowMessageFace("sonia_fc2",2,0,2,42)
    ShowMessage("\\n<Sonya>Other matters have to be put aside for now. Let's ask around properly and then meet with the Queen.")
    0()
   Else()
    ShowMessageFace("ruka_fc1",0,0,2,43)
    ShowMessage("\\n<Luka>We'll have to put off the other cases for now. Let's ask around first and then meet with the Queen!")
    0()
   EndIf()
   0()
  EndIf()
  If(4,129,0)
   ShowMessageFace("brunhild_fc1",0,0,2,44)
   ShowMessage("\\n<Hild>We won't fight the Queen...? So there is no work for Hild...")
   0()
  EndIf()
  ChangeVariable(1028,1028,0,0,1)
  0()
 PAGE   2
  // condition: self-switch A is ON
  0()



EVENT   25
 PAGE   1
  250(bytes(0x04,0x08,0x6f,0x3a,0x0c,0x52,0x50,0x47,0x3a,0x3a,0x53,0x45,0x08,0x3a,0x0a,0x40,0x6e,0x61,0x6d,0x65,0x49,0x22,0x09,0x4d,0x6f,0x76,0x65,0x06,0x3a,0x06,0x45,0x54,0x3a,0x0b,0x40,0x70,0x69,0x74,0x63,0x68,0x69,0x69,0x3a,0x0c,0x40,0x76,0x6f,0x6c,0x75,0x6d,0x65,0x69,0x55))
  TeleportPlayer(0,2,103,293,2,0)
  0()



EVENT   24
 PAGE   1
  250(bytes(0x04,0x08,0x6f,0x3a,0x0c,0x52,0x50,0x47,0x3a,0x3a,0x53,0x45,0x08,0x3a,0x0a,0x40,0x6e,0x61,0x6d,0x65,0x49,0x22,0x09,0x4d,0x6f,0x76,0x65,0x06,0x3a,0x06,0x45,0x54,0x3a,0x0b,0x40,0x70,0x69,0x74,0x63,0x68,0x69,0x69,0x3a,0x0c,0x40,0x76,0x6f,0x6c,0x75,0x6d,0x65,0x69,0x55))
  TeleportPlayer(0,2,103,293,2,0)
  0()



EVENT   23
 PAGE   1
  250(bytes(0x04,0x08,0x6f,0x3a,0x0c,0x52,0x50,0x47,0x3a,0x3a,0x53,0x45,0x08,0x3a,0x0a,0x40,0x6e,0x61,0x6d,0x65,0x49,0x22,0x09,0x4d,0x6f,0x76,0x65,0x06,0x3a,0x06,0x45,0x54,0x3a,0x0b,0x40,0x70,0x69,0x74,0x63,0x68,0x69,0x69,0x3a,0x0c,0x40,0x76,0x6f,0x6c,0x75,0x6d,0x65,0x69,0x55))
  TeleportPlayer(0,2,103,293,2,0)
  0()



EVENT   22
 PAGE   1
  250(bytes(0x04,0x08,0x6f,0x3a,0x0c,0x52,0x50,0x47,0x3a,0x3a,0x53,0x45,0x08,0x3a,0x0a,0x40,0x6e,0x61,0x6d,0x65,0x49,0x22,0x09,0x4d,0x6f,0x76,0x65,0x06,0x3a,0x06,0x45,0x54,0x3a,0x0b,0x40,0x70,0x69,0x74,0x63,0x68,0x69,0x69,0x3a,0x0c,0x40,0x76,0x6f,0x6c,0x75,0x6d,0x65,0x69,0x55))
  TeleportPlayer(0,2,103,293,2,0)
  0()



EVENT   34
 PAGE   1
  If(1,1028,0,7,2)
   ShowMessageFace("",0,0,2,1)
   ShowMessage("\\n<Youth>Despite what I said earlier... Many people from this city are starting to think that the change in Queen Sara is not just due to her father's death.")
   ShowMessageFace("",0,0,2,2)
   ShowMessage("\\n<Youth>Like, her sanity has just gone out the window. It's almost like the Princess Sara we know was switched and replaced by someone else. In other words, people think she is being influenced.")
   ShowMessageFace("",0,0,2,3)
   ShowMessage("\\n<Youth>I'm somewhat skeptical about it. Certainly her personality has changed too much compared to how she was as a Princess...")
   ShowMessageFace("",0,0,2,4)
   ShowMessage("\\n<Youth>Whoops, that's not a good topic. Ignore me. So, where do you want to go?")
   0()
  EndIf()
  If(1,1028,0,8,0)
   ShowMessageFace("",0,0,2,5)
   ShowMessage("\\n<Youth>That youma has done something to lady Sara. I didn't think much of it at first, but she's changed so much since she was a Princess.")
   ShowMessageFace("",0,0,2,6)
   ShowMessage("\\n<Youth>Whoops, nevermind that. So, where do you want to go?")
   0()
  EndIf()
  355("unlimited_choices(11, [\"Inn\",")
  655("\"Weapon-Armor-Accessory Shop\",")
  655("\"Item Shop\",\"Blacksmith\",")
  655("\"Church\",\"Sabasa Castle\",\"Nowhere\"])")
  If(1,11,0,0,0)
   TeleportPlayer(0,476,60,71,2,0)
   EndEventProcessing()
   0()
  EndIf()
  If(1,11,0,1,0)
   TeleportPlayer(0,476,47,70,2,0)
   EndEventProcessing()
   0()
  EndIf()
  If(1,11,0,2,0)
   TeleportPlayer(0,476,54,17,2,0)
   EndEventProcessing()
   0()
  EndIf()
  If(1,11,0,3,0)
   TeleportPlayer(0,476,37,19,2,0)
   EndEventProcessing()
   0()
  EndIf()
  If(1,11,0,4,0)
   TeleportPlayer(0,476,65,44,2,0)
   EndEventProcessing()
   0()
  EndIf()
  If(1,11,0,5,0)
   TeleportPlayer(0,476,14,1,2,0)
   EndEventProcessing()
   0()
  EndIf()
  If(1,11,0,6,0)
   EndEventProcessing()
   0()
  EndIf()
  0()



EVENT   2
 PAGE   1
  250(bytes(0x04,0x08,0x6f,0x3a,0x0c,0x52,0x50,0x47,0x3a,0x3a,0x53,0x45,0x08,0x3a,0x0a,0x40,0x6e,0x61,0x6d,0x65,0x49,0x22,0x0a,0x4f,0x70,0x65,0x6e,0x31,0x06,0x3a,0x06,0x45,0x54,0x3a,0x0b,0x40,0x70,0x69,0x74,0x63,0x68,0x69,0x69,0x3a,0x0c,0x40,0x76,0x6f,0x6c,0x75,0x6d,0x65,0x69,0x55))
  205(0,bytes(0x04,0x08,0x6f,0x3a,0x13,0x52,0x50,0x47,0x3a,0x3a,0x4d,0x6f,0x76,0x65,0x52,0x6f,0x75,0x74,0x65,0x09,0x3a,0x0c,0x40,0x72,0x65,0x70,0x65,0x61,0x74,0x46,0x3a,0x0f,0x40,0x73,0x6b,0x69,0x70,0x70,0x61,0x62,0x6c,0x65,0x46,0x3a,0x0a,0x40,0x77,0x61,0x69,0x74,0x54,0x3a,0x0a,0x40,0x6c,0x69,0x73,0x74,0x5b,0x0c,0x6f,0x3a,0x15,0x52,0x50,0x47,0x3a,0x3a,0x4d,0x6f,0x76,0x65,0x43,0x6f,0x6d,0x6d,0x61,0x6e,0x64,0x07,0x3a,0x0a,0x40,0x63,0x6f,0x64,0x65,0x69,0x16,0x3a,0x10,0x40,0x70,0x61,0x72,0x61,0x6d,0x65,0x74,0x65,0x72,0x73,0x5b,0x00,0x6f,0x3b,0x0a,0x07,0x3b,0x0b,0x69,0x14,0x3b,0x0c,0x5b,0x06,0x69,0x08,0x6f,0x3b,0x0a,0x07,0x3b,0x0b,0x69,0x17,0x3b,0x0c,0x5b,0x00,0x6f,0x3b,0x0a,0x07,0x3b,0x0b,0x69,0x14,0x3b,0x0c,0x5b,0x06,0x69,0x08,0x6f,0x3b,0x0a,0x07,0x3b,0x0b,0x69,0x18,0x3b,0x0c,0x5b,0x00,0x6f,0x3b,0x0a,0x07,0x3b,0x0b,0x69,0x2a,0x3b,0x0c,0x5b,0x00,0x6f,0x3b,0x0a,0x07,0x3b,0x0b,0x69,0x00,0x3b,0x0c,0x5b,0x00))
  205(-1,bytes(0x04,0x08,0x6f,0x3a,0x13,0x52,0x50,0x47,0x3a,0x3a,0x4d,0x6f,0x76,0x65,0x52,0x6f,0x75,0x74,0x65,0x09,0x3a,0x0c,0x40,0x72,0x65,0x70,0x65,0x61,0x74,0x46,0x3a,0x0f,0x40,0x73,0x6b,0x69,0x70,0x70,0x61,0x62,0x6c,0x65,0x54,0x3a,0x0a,0x40,0x77,0x61,0x69,0x74,0x54,0x3a,0x0a,0x40,0x6c,0x69,0x73,0x74,0x5b,0x07,0x6f,0x3a,0x15,0x52,0x50,0x47,0x3a,0x3a,0x4d,0x6f,0x76,0x65,0x43,0x6f,0x6d,0x6d,0x61,0x6e,0x64,0x07,0x3a,0x0a,0x40,0x63,0x6f,0x64,0x65,0x69,0x11,0x3a,0x10,0x40,0x70,0x61,0x72,0x61,0x6d,0x65,0x74,0x65,0x72,0x73,0x5b,0x00,0x6f,0x3b,0x0a,0x07,0x3b,0x0b,0x69,0x00,0x3b,0x0c,0x5b,0x00))
  250(bytes(0x04,0x08,0x6f,0x3a,0x0c,0x52,0x50,0x47,0x3a,0x3a,0x53,0x45,0x08,0x3a,0x0a,0x40,0x6e,0x61,0x6d,0x65,0x49,0x22,0x09,0x4d,0x6f,0x76,0x65,0x06,0x3a,0x06,0x45,0x54,0x3a,0x0b,0x40,0x70,0x69,0x74,0x63,0x68,0x69,0x69,0x3a,0x0c,0x40,0x76,0x6f,0x6c,0x75,0x6d,0x65,0x69,0x55))
  TeleportPlayer(0,477,53,61,0,0)
  0()



EVENT   1
 PAGE   1
  ChangeSwitch(31,31,1)
  250(bytes(0x04,0x08,0x6f,0x3a,0x0c,0x52,0x50,0x47,0x3a,0x3a,0x53,0x45,0x08,0x3a,0x0a,0x40,0x6e,0x61,0x6d,0x65,0x49,0x22,0x0a,0x4f,0x70,0x65,0x6e,0x31,0x06,0x3a,0x06,0x45,0x54,0x3a,0x0b,0x40,0x70,0x69,0x74,0x63,0x68,0x69,0x69,0x3a,0x0c,0x40,0x76,0x6f,0x6c,0x75,0x6d,0x65,0x69,0x55))
  205(0,bytes(0x04,0x08,0x6f,0x3a,0x13,0x52,0x50,0x47,0x3a,0x3a,0x4d,0x6f,0x76,0x65,0x52,0x6f,0x75,0x74,0x65,0x09,0x3a,0x0c,0x40,0x72,0x65,0x70,0x65,0x61,0x74,0x46,0x3a,0x0f,0x40,0x73,0x6b,0x69,0x70,0x70,0x61,0x62,0x6c,0x65,0x46,0x3a,0x0a,0x40,0x77,0x61,0x69,0x74,0x54,0x3a,0x0a,0x40,0x6c,0x69,0x73,0x74,0x5b,0x0c,0x6f,0x3a,0x15,0x52,0x50,0x47,0x3a,0x3a,0x4d,0x6f,0x76,0x65,0x43,0x6f,0x6d,0x6d,0x61,0x6e,0x64,0x07,0x3a,0x0a,0x40,0x63,0x6f,0x64,0x65,0x69,0x16,0x3a,0x10,0x40,0x70,0x61,0x72,0x61,0x6d,0x65,0x74,0x65,0x72,0x73,0x5b,0x00,0x6f,0x3b,0x0a,0x07,0x3b,0x0b,0x69,0x14,0x3b,0x0c,0x5b,0x06,0x69,0x08,0x6f,0x3b,0x0a,0x07,0x3b,0x0b,0x69,0x17,0x3b,0x0c,0x5b,0x00,0x6f,0x3b,0x0a,0x07,0x3b,0x0b,0x69,0x14,0x3b,0x0c,0x5b,0x06,0x69,0x08,0x6f,0x3b,0x0a,0x07,0x3b,0x0b,0x69,0x18,0x3b,0x0c,0x5b,0x00,0x6f,0x3b,0x0a,0x07,0x3b,0x0b,0x69,0x2a,0x3b,0x0c,0x5b,0x00,0x6f,0x3b,0x0a,0x07,0x3b,0x0b,0x69,0x00,0x3b,0x0c,0x5b,0x00))
  205(-1,bytes(0x04,0x08,0x6f,0x3a,0x13,0x52,0x50,0x47,0x3a,0x3a,0x4d,0x6f,0x76,0x65,0x52,0x6f,0x75,0x74,0x65,0x09,0x3a,0x0c,0x40,0x72,0x65,0x70,0x65,0x61,0x74,0x46,0x3a,0x0f,0x40,0x73,0x6b,0x69,0x70,0x70,0x61,0x62,0x6c,0x65,0x54,0x3a,0x0a,0x40,0x77,0x61,0x69,0x74,0x54,0x3a,0x0a,0x40,0x6c,0x69,0x73,0x74,0x5b,0x07,0x6f,0x3a,0x15,0x52,0x50,0x47,0x3a,0x3a,0x4d,0x6f,0x76,0x65,0x43,0x6f,0x6d,0x6d,0x61,0x6e,0x64,0x07,0x3a,0x0a,0x40,0x63,0x6f,0x64,0x65,0x69,0x11,0x3a,0x10,0x40,0x70,0x61,0x72,0x61,0x6d,0x65,0x74,0x65,0x72,0x73,0x5b,0x00,0x6f,0x3b,0x0a,0x07,0x3b,0x0b,0x69,0x00,0x3b,0x0c,0x5b,0x00))
  250(bytes(0x04,0x08,0x6f,0x3a,0x0c,0x52,0x50,0x47,0x3a,0x3a,0x53,0x45,0x08,0x3a,0x0a,0x40,0x6e,0x61,0x6d,0x65,0x49,0x22,0x09,0x4d,0x6f,0x76,0x65,0x06,0x3a,0x06,0x45,0x54,0x3a,0x0b,0x40,0x70,0x69,0x74,0x63,0x68,0x69,0x69,0x3a,0x0c,0x40,0x76,0x6f,0x6c,0x75,0x6d,0x65,0x69,0x55))
  TeleportPlayer(0,477,12,102,0,0)
  0()



EVENT   4
 PAGE   1
  250(bytes(0x04,0x08,0x6f,0x3a,0x0c,0x52,0x50,0x47,0x3a,0x3a,0x53,0x45,0x08,0x3a,0x0a,0x40,0x6e,0x61,0x6d,0x65,0x49,0x22,0x0a,0x4f,0x70,0x65,0x6e,0x31,0x06,0x3a,0x06,0x45,0x54,0x3a,0x0b,0x40,0x70,0x69,0x74,0x63,0x68,0x69,0x69,0x3a,0x0c,0x40,0x76,0x6f,0x6c,0x75,0x6d,0x65,0x69,0x55))
  205(0,bytes(0x04,0x08,0x6f,0x3a,0x13,0x52,0x50,0x47,0x3a,0x3a,0x4d,0x6f,0x76,0x65,0x52,0x6f,0x75,0x74,0x65,0x09,0x3a,0x0c,0x40,0x72,0x65,0x70,0x65,0x61,0x74,0x46,0x3a,0x0f,0x40,0x73,0x6b,0x69,0x70,0x70,0x61,0x62,0x6c,0x65,0x46,0x3a,0x0a,0x40,0x77,0x61,0x69,0x74,0x54,0x3a,0x0a,0x40,0x6c,0x69,0x73,0x74,0x5b,0x0c,0x6f,0x3a,0x15,0x52,0x50,0x47,0x3a,0x3a,0x4d,0x6f,0x76,0x65,0x43,0x6f,0x6d,0x6d,0x61,0x6e,0x64,0x07,0x3a,0x0a,0x40,0x63,0x6f,0x64,0x65,0x69,0x16,0x3a,0x10,0x40,0x70,0x61,0x72,0x61,0x6d,0x65,0x74,0x65,0x72,0x73,0x5b,0x00,0x6f,0x3b,0x0a,0x07,0x3b,0x0b,0x69,0x14,0x3b,0x0c,0x5b,0x06,0x69,0x08,0x6f,0x3b,0x0a,0x07,0x3b,0x0b,0x69,0x17,0x3b,0x0c,0x5b,0x00,0x6f,0x3b,0x0a,0x07,0x3b,0x0b,0x69,0x14,0x3b,0x0c,0x5b,0x06,0x69,0x08,0x6f,0x3b,0x0a,0x07,0x3b,0x0b,0x69,0x18,0x3b,0x0c,0x5b,0x00,0x6f,0x3b,0x0a,0x07,0x3b,0x0b,0x69,0x2a,0x3b,0x0c,0x5b,0x00,0x6f,0x3b,0x0a,0x07,0x3b,0x0b,0x69,0x00,0x3b,0x0c,0x5b,0x00))
  205(-1,bytes(0x04,0x08,0x6f,0x3a,0x13,0x52,0x50,0x47,0x3a,0x3a,0x4d,0x6f,0x76,0x65,0x52,0x6f,0x75,0x74,0x65,0x09,0x3a,0x0c,0x40,0x72,0x65,0x70,0x65,0x61,0x74,0x46,0x3a,0x0f,0x40,0x73,0x6b,0x69,0x70,0x70,0x61,0x62,0x6c,0x65,0x54,0x3a,0x0a,0x40,0x77,0x61,0x69,0x74,0x54,0x3a,0x0a,0x40,0x6c,0x69,0x73,0x74,0x5b,0x07,0x6f,0x3a,0x15,0x52,0x50,0x47,0x3a,0x3a,0x4d,0x6f,0x76,0x65,0x43,0x6f,0x6d,0x6d,0x61,0x6e,0x64,0x07,0x3a,0x0a,0x40,0x63,0x6f,0x64,0x65,0x69,0x11,0x3a,0x10,0x40,0x70,0x61,0x72,0x61,0x6d,0x65,0x74,0x65,0x72,0x73,0x5b,0x00,0x6f,0x3b,0x0a,0x07,0x3b,0x0b,0x69,0x00,0x3b,0x0c,0x5b,0x00))
  250(bytes(0x04,0x08,0x6f,0x3a,0x0c,0x52,0x50,0x47,0x3a,0x3a,0x53,0x45,0x08,0x3a,0x0a,0x40,0x6e,0x61,0x6d,0x65,0x49,0x22,0x09,0x4d,0x6f,0x76,0x65,0x06,0x3a,0x06,0x45,0x54,0x3a,0x0b,0x40,0x70,0x69,0x74,0x63,0x68,0x69,0x69,0x3a,0x0c,0x40,0x76,0x6f,0x6c,0x75,0x6d,0x65,0x69,0x55))
  TeleportPlayer(0,477,55,100,0,0)
  0()



EVENT   5
 PAGE   1
  250(bytes(0x04,0x08,0x6f,0x3a,0x0c,0x52,0x50,0x47,0x3a,0x3a,0x53,0x45,0x08,0x3a,0x0a,0x40,0x6e,0x61,0x6d,0x65,0x49,0x22,0x0a,0x4f,0x70,0x65,0x6e,0x31,0x06,0x3a,0x06,0x45,0x54,0x3a,0x0b,0x40,0x70,0x69,0x74,0x63,0x68,0x69,0x69,0x3a,0x0c,0x40,0x76,0x6f,0x6c,0x75,0x6d,0x65,0x69,0x55))
  205(0,bytes(0x04,0x08,0x6f,0x3a,0x13,0x52,0x50,0x47,0x3a,0x3a,0x4d,0x6f,0x76,0x65,0x52,0x6f,0x75,0x74,0x65,0x09,0x3a,0x0c,0x40,0x72,0x65,0x70,0x65,0x61,0x74,0x46,0x3a,0x0f,0x40,0x73,0x6b,0x69,0x70,0x70,0x61,0x62,0x6c,0x65,0x46,0x3a,0x0a,0x40,0x77,0x61,0x69,0x74,0x54,0x3a,0x0a,0x40,0x6c,0x69,0x73,0x74,0x5b,0x0c,0x6f,0x3a,0x15,0x52,0x50,0x47,0x3a,0x3a,0x4d,0x6f,0x76,0x65,0x43,0x6f,0x6d,0x6d,0x61,0x6e,0x64,0x07,0x3a,0x0a,0x40,0x63,0x6f,0x64,0x65,0x69,0x16,0x3a,0x10,0x40,0x70,0x61,0x72,0x61,0x6d,0x65,0x74,0x65,0x72,0x73,0x5b,0x00,0x6f,0x3b,0x0a,0x07,0x3b,0x0b,0x69,0x14,0x3b,0x0c,0x5b,0x06,0x69,0x08,0x6f,0x3b,0x0a,0x07,0x3b,0x0b,0x69,0x17,0x3b,0x0c,0x5b,0x00,0x6f,0x3b,0x0a,0x07,0x3b,0x0b,0x69,0x14,0x3b,0x0c,0x5b,0x06,0x69,0x08,0x6f,0x3b,0x0a,0x07,0x3b,0x0b,0x69,0x18,0x3b,0x0c,0x5b,0x00,0x6f,0x3b,0x0a,0x07,0x3b,0x0b,0x69,0x2a,0x3b,0x0c,0x5b,0x00,0x6f,0x3b,0x0a,0x07,0x3b,0x0b,0x69,0x00,0x3b,0x0c,0x5b,0x00))
  205(-1,bytes(0x04,0x08,0x6f,0x3a,0x13,0x52,0x50,0x47,0x3a,0x3a,0x4d,0x6f,0x76,0x65,0x52,0x6f,0x75,0x74,0x65,0x09,0x3a,0x0c,0x40,0x72,0x65,0x70,0x65,0x61,0x74,0x46,0x3a,0x0f,0x40,0x73,0x6b,0x69,0x70,0x70,0x61,0x62,0x6c,0x65,0x54,0x3a,0x0a,0x40,0x77,0x61,0x69,0x74,0x54,0x3a,0x0a,0x40,0x6c,0x69,0x73,0x74,0x5b,0x07,0x6f,0x3a,0x15,0x52,0x50,0x47,0x3a,0x3a,0x4d,0x6f,0x76,0x65,0x43,0x6f,0x6d,0x6d,0x61,0x6e,0x64,0x07,0x3a,0x0a,0x40,0x63,0x6f,0x64,0x65,0x69,0x11,0x3a,0x10,0x40,0x70,0x61,0x72,0x61,0x6d,0x65,0x74,0x65,0x72,0x73,0x5b,0x00,0x6f,0x3b,0x0a,0x07,0x3b,0x0b,0x69,0x00,0x3b,0x0c,0x5b,0x00))
  250(bytes(0x04,0x08,0x6f,0x3a,0x0c,0x52,0x50,0x47,0x3a,0x3a,0x53,0x45,0x08,0x3a,0x0a,0x40,0x6e,0x61,0x6d,0x65,0x49,0x22,0x09,0x4d,0x6f,0x76,0x65,0x06,0x3a,0x06,0x45,0x54,0x3a,0x0b,0x40,0x70,0x69,0x74,0x63,0x68,0x69,0x69,0x3a,0x0c,0x40,0x76,0x6f,0x6c,0x75,0x6d,0x65,0x69,0x55))
  TeleportPlayer(0,477,94,101,0,0)
  0()



EVENT   21
 PAGE   1
  250(bytes(0x04,0x08,0x6f,0x3a,0x0c,0x52,0x50,0x47,0x3a,0x3a,0x53,0x45,0x08,0x3a,0x0a,0x40,0x6e,0x61,0x6d,0x65,0x49,0x22,0x0a,0x4f,0x70,0x65,0x6e,0x31,0x06,0x3a,0x06,0x45,0x54,0x3a,0x0b,0x40,0x70,0x69,0x74,0x63,0x68,0x69,0x69,0x3a,0x0c,0x40,0x76,0x6f,0x6c,0x75,0x6d,0x65,0x69,0x55))
  205(0,bytes(0x04,0x08,0x6f,0x3a,0x13,0x52,0x50,0x47,0x3a,0x3a,0x4d,0x6f,0x76,0x65,0x52,0x6f,0x75,0x74,0x65,0x09,0x3a,0x0c,0x40,0x72,0x65,0x70,0x65,0x61,0x74,0x46,0x3a,0x0f,0x40,0x73,0x6b,0x69,0x70,0x70,0x61,0x62,0x6c,0x65,0x46,0x3a,0x0a,0x40,0x77,0x61,0x69,0x74,0x54,0x3a,0x0a,0x40,0x6c,0x69,0x73,0x74,0x5b,0x0c,0x6f,0x3a,0x15,0x52,0x50,0x47,0x3a,0x3a,0x4d,0x6f,0x76,0x65,0x43,0x6f,0x6d,0x6d,0x61,0x6e,0x64,0x07,0x3a,0x0a,0x40,0x63,0x6f,0x64,0x65,0x69,0x16,0x3a,0x10,0x40,0x70,0x61,0x72,0x61,0x6d,0x65,0x74,0x65,0x72,0x73,0x5b,0x00,0x6f,0x3b,0x0a,0x07,0x3b,0x0b,0x69,0x14,0x3b,0x0c,0x5b,0x06,0x69,0x08,0x6f,0x3b,0x0a,0x07,0x3b,0x0b,0x69,0x17,0x3b,0x0c,0x5b,0x00,0x6f,0x3b,0x0a,0x07,0x3b,0x0b,0x69,0x14,0x3b,0x0c,0x5b,0x06,0x69,0x08,0x6f,0x3b,0x0a,0x07,0x3b,0x0b,0x69,0x18,0x3b,0x0c,0x5b,0x00,0x6f,0x3b,0x0a,0x07,0x3b,0x0b,0x69,0x2a,0x3b,0x0c,0x5b,0x00,0x6f,0x3b,0x0a,0x07,0x3b,0x0b,0x69,0x00,0x3b,0x0c,0x5b,0x00))
  205(-1,bytes(0x04,0x08,0x6f,0x3a,0x13,0x52,0x50,0x47,0x3a,0x3a,0x4d,0x6f,0x76,0x65,0x52,0x6f,0x75,0x74,0x65,0x09,0x3a,0x0c,0x40,0x72,0x65,0x70,0x65,0x61,0x74,0x46,0x3a,0x0f,0x40,0x73,0x6b,0x69,0x70,0x70,0x61,0x62,0x6c,0x65,0x54,0x3a,0x0a,0x40,0x77,0x61,0x69,0x74,0x54,0x3a,0x0a,0x40,0x6c,0x69,0x73,0x74,0x5b,0x07,0x6f,0x3a,0x15,0x52,0x50,0x47,0x3a,0x3a,0x4d,0x6f,0x76,0x65,0x43,0x6f,0x6d,0x6d,0x61,0x6e,0x64,0x07,0x3a,0x0a,0x40,0x63,0x6f,0x64,0x65,0x69,0x11,0x3a,0x10,0x40,0x70,0x61,0x72,0x61,0x6d,0x65,0x74,0x65,0x72,0x73,0x5b,0x00,0x6f,0x3b,0x0a,0x07,0x3b,0x0b,0x69,0x00,0x3b,0x0c,0x5b,0x00))
  250(bytes(0x04,0x08,0x6f,0x3a,0x0c,0x52,0x50,0x47,0x3a,0x3a,0x53,0x45,0x08,0x3a,0x0a,0x40,0x6e,0x61,0x6d,0x65,0x49,0x22,0x09,0x4d,0x6f,0x76,0x65,0x06,0x3a,0x06,0x45,0x54,0x3a,0x0b,0x40,0x70,0x69,0x74,0x63,0x68,0x69,0x69,0x3a,0x0c,0x40,0x76,0x6f,0x6c,0x75,0x6d,0x65,0x69,0x55))
  TeleportPlayer(0,477,131,98,0,0)
  0()



EVENT   7
 PAGE   1
  250(bytes(0x04,0x08,0x6f,0x3a,0x0c,0x52,0x50,0x47,0x3a,0x3a,0x53,0x45,0x08,0x3a,0x0a,0x40,0x6e,0x61,0x6d,0x65,0x49,0x22,0x0a,0x4f,0x70,0x65,0x6e,0x31,0x06,0x3a,0x06,0x45,0x54,0x3a,0x0b,0x40,0x70,0x69,0x74,0x63,0x68,0x69,0x69,0x3a,0x0c,0x40,0x76,0x6f,0x6c,0x75,0x6d,0x65,0x69,0x55))
  205(0,bytes(0x04,0x08,0x6f,0x3a,0x13,0x52,0x50,0x47,0x3a,0x3a,0x4d,0x6f,0x76,0x65,0x52,0x6f,0x75,0x74,0x65,0x09,0x3a,0x0c,0x40,0x72,0x65,0x70,0x65,0x61,0x74,0x46,0x3a,0x0f,0x40,0x73,0x6b,0x69,0x70,0x70,0x61,0x62,0x6c,0x65,0x46,0x3a,0x0a,0x40,0x77,0x61,0x69,0x74,0x54,0x3a,0x0a,0x40,0x6c,0x69,0x73,0x74,0x5b,0x0c,0x6f,0x3a,0x15,0x52,0x50,0x47,0x3a,0x3a,0x4d,0x6f,0x76,0x65,0x43,0x6f,0x6d,0x6d,0x61,0x6e,0x64,0x07,0x3a,0x0a,0x40,0x63,0x6f,0x64,0x65,0x69,0x16,0x3a,0x10,0x40,0x70,0x61,0x72,0x61,0x6d,0x65,0x74,0x65,0x72,0x73,0x5b,0x00,0x6f,0x3b,0x0a,0x07,0x3b,0x0b,0x69,0x14,0x3b,0x0c,0x5b,0x06,0x69,0x08,0x6f,0x3b,0x0a,0x07,0x3b,0x0b,0x69,0x17,0x3b,0x0c,0x5b,0x00,0x6f,0x3b,0x0a,0x07,0x3b,0x0b,0x69,0x14,0x3b,0x0c,0x5b,0x06,0x69,0x08,0x6f,0x3b,0x0a,0x07,0x3b,0x0b,0x69,0x18,0x3b,0x0c,0x5b,0x00,0x6f,0x3b,0x0a,0x07,0x3b,0x0b,0x69,0x2a,0x3b,0x0c,0x5b,0x00,0x6f,0x3b,0x0a,0x07,0x3b,0x0b,0x69,0x00,0x3b,0x0c,0x5b,0x00))
  205(-1,bytes(0x04,0x08,0x6f,0x3a,0x13,0x52,0x50,0x47,0x3a,0x3a,0x4d,0x6f,0x76,0x65,0x52,0x6f,0x75,0x74,0x65,0x09,0x3a,0x0c,0x40,0x72,0x65,0x70,0x65,0x61,0x74,0x46,0x3a,0x0f,0x40,0x73,0x6b,0x69,0x70,0x70,0x61,0x62,0x6c,0x65,0x54,0x3a,0x0a,0x40,0x77,0x61,0x69,0x74,0x54,0x3a,0x0a,0x40,0x6c,0x69,0x73,0x74,0x5b,0x07,0x6f,0x3a,0x15,0x52,0x50,0x47,0x3a,0x3a,0x4d,0x6f,0x76,0x65,0x43,0x6f,0x6d,0x6d,0x61,0x6e,0x64,0x07,0x3a,0x0a,0x40,0x63,0x6f,0x64,0x65,0x69,0x11,0x3a,0x10,0x40,0x70,0x61,0x72,0x61,0x6d,0x65,0x74,0x65,0x72,0x73,0x5b,0x00,0x6f,0x3b,0x0a,0x07,0x3b,0x0b,0x69,0x00,0x3b,0x0c,0x5b,0x00))
  250(bytes(0x04,0x08,0x6f,0x3a,0x0c,0x52,0x50,0x47,0x3a,0x3a,0x53,0x45,0x08,0x3a,0x0a,0x40,0x6e,0x61,0x6d,0x65,0x49,0x22,0x09,0x4d,0x6f,0x76,0x65,0x06,0x3a,0x06,0x45,0x54,0x3a,0x0b,0x40,0x70,0x69,0x74,0x63,0x68,0x69,0x69,0x3a,0x0c,0x40,0x76,0x6f,0x6c,0x75,0x6d,0x65,0x69,0x55))
  TeleportPlayer(0,477,94,20,0,0)
  0()



EVENT   8
 PAGE   1
  250(bytes(0x04,0x08,0x6f,0x3a,0x0c,0x52,0x50,0x47,0x3a,0x3a,0x53,0x45,0x08,0x3a,0x0a,0x40,0x6e,0x61,0x6d,0x65,0x49,0x22,0x0a,0x4f,0x70,0x65,0x6e,0x31,0x06,0x3a,0x06,0x45,0x54,0x3a,0x0b,0x40,0x70,0x69,0x74,0x63,0x68,0x69,0x69,0x3a,0x0c,0x40,0x76,0x6f,0x6c,0x75,0x6d,0x65,0x69,0x55))
  205(0,bytes(0x04,0x08,0x6f,0x3a,0x13,0x52,0x50,0x47,0x3a,0x3a,0x4d,0x6f,0x76,0x65,0x52,0x6f,0x75,0x74,0x65,0x09,0x3a,0x0c,0x40,0x72,0x65,0x70,0x65,0x61,0x74,0x46,0x3a,0x0f,0x40,0x73,0x6b,0x69,0x70,0x70,0x61,0x62,0x6c,0x65,0x46,0x3a,0x0a,0x40,0x77,0x61,0x69,0x74,0x54,0x3a,0x0a,0x40,0x6c,0x69,0x73,0x74,0x5b,0x0c,0x6f,0x3a,0x15,0x52,0x50,0x47,0x3a,0x3a,0x4d,0x6f,0x76,0x65,0x43,0x6f,0x6d,0x6d,0x61,0x6e,0x64,0x07,0x3a,0x0a,0x40,0x63,0x6f,0x64,0x65,0x69,0x16,0x3a,0x10,0x40,0x70,0x61,0x72,0x61,0x6d,0x65,0x74,0x65,0x72,0x73,0x5b,0x00,0x6f,0x3b,0x0a,0x07,0x3b,0x0b,0x69,0x14,0x3b,0x0c,0x5b,0x06,0x69,0x08,0x6f,0x3b,0x0a,0x07,0x3b,0x0b,0x69,0x17,0x3b,0x0c,0x5b,0x00,0x6f,0x3b,0x0a,0x07,0x3b,0x0b,0x69,0x14,0x3b,0x0c,0x5b,0x06,0x69,0x08,0x6f,0x3b,0x0a,0x07,0x3b,0x0b,0x69,0x18,0x3b,0x0c,0x5b,0x00,0x6f,0x3b,0x0a,0x07,0x3b,0x0b,0x69,0x2a,0x3b,0x0c,0x5b,0x00,0x6f,0x3b,0x0a,0x07,0x3b,0x0b,0x69,0x00,0x3b,0x0c,0x5b,0x00))
  205(-1,bytes(0x04,0x08,0x6f,0x3a,0x13,0x52,0x50,0x47,0x3a,0x3a,0x4d,0x6f,0x76,0x65,0x52,0x6f,0x75,0x74,0x65,0x09,0x3a,0x0c,0x40,0x72,0x65,0x70,0x65,0x61,0x74,0x46,0x3a,0x0f,0x40,0x73,0x6b,0x69,0x70,0x70,0x61,0x62,0x6c,0x65,0x54,0x3a,0x0a,0x40,0x77,0x61,0x69,0x74,0x54,0x3a,0x0a,0x40,0x6c,0x69,0x73,0x74,0x5b,0x07,0x6f,0x3a,0x15,0x52,0x50,0x47,0x3a,0x3a,0x4d,0x6f,0x76,0x65,0x43,0x6f,0x6d,0x6d,0x61,0x6e,0x64,0x07,0x3a,0x0a,0x40,0x63,0x6f,0x64,0x65,0x69,0x11,0x3a,0x10,0x40,0x70,0x61,0x72,0x61,0x6d,0x65,0x74,0x65,0x72,0x73,0x5b,0x00,0x6f,0x3b,0x0a,0x07,0x3b,0x0b,0x69,0x00,0x3b,0x0c,0x5b,0x00))
  250(bytes(0x04,0x08,0x6f,0x3a,0x0c,0x52,0x50,0x47,0x3a,0x3a,0x53,0x45,0x08,0x3a,0x0a,0x40,0x6e,0x61,0x6d,0x65,0x49,0x22,0x09,0x4d,0x6f,0x76,0x65,0x06,0x3a,0x06,0x45,0x54,0x3a,0x0b,0x40,0x70,0x69,0x74,0x63,0x68,0x69,0x69,0x3a,0x0c,0x40,0x76,0x6f,0x6c,0x75,0x6d,0x65,0x69,0x55))
  TeleportPlayer(0,477,60,20,0,0)
  0()



EVENT   9
 PAGE   1
  250(bytes(0x04,0x08,0x6f,0x3a,0x0c,0x52,0x50,0x47,0x3a,0x3a,0x53,0x45,0x08,0x3a,0x0a,0x40,0x6e,0x61,0x6d,0x65,0x49,0x22,0x0a,0x4f,0x70,0x65,0x6e,0x31,0x06,0x3a,0x06,0x45,0x54,0x3a,0x0b,0x40,0x70,0x69,0x74,0x63,0x68,0x69,0x69,0x3a,0x0c,0x40,0x76,0x6f,0x6c,0x75,0x6d,0x65,0x69,0x55))
  205(0,bytes(0x04,0x08,0x6f,0x3a,0x13,0x52,0x50,0x47,0x3a,0x3a,0x4d,0x6f,0x76,0x65,0x52,0x6f,0x75,0x74,0x65,0x09,0x3a,0x0c,0x40,0x72,0x65,0x70,0x65,0x61,0x74,0x46,0x3a,0x0f,0x40,0x73,0x6b,0x69,0x70,0x70,0x61,0x62,0x6c,0x65,0x46,0x3a,0x0a,0x40,0x77,0x61,0x69,0x74,0x54,0x3a,0x0a,0x40,0x6c,0x69,0x73,0x74,0x5b,0x0c,0x6f,0x3a,0x15,0x52,0x50,0x47,0x3a,0x3a,0x4d,0x6f,0x76,0x65,0x43,0x6f,0x6d,0x6d,0x61,0x6e,0x64,0x07,0x3a,0x0a,0x40,0x63,0x6f,0x64,0x65,0x69,0x16,0x3a,0x10,0x40,0x70,0x61,0x72,0x61,0x6d,0x65,0x74,0x65,0x72,0x73,0x5b,0x00,0x6f,0x3b,0x0a,0x07,0x3b,0x0b,0x69,0x14,0x3b,0x0c,0x5b,0x06,0x69,0x08,0x6f,0x3b,0x0a,0x07,0x3b,0x0b,0x69,0x17,0x3b,0x0c,0x5b,0x00,0x6f,0x3b,0x0a,0x07,0x3b,0x0b,0x69,0x14,0x3b,0x0c,0x5b,0x06,0x69,0x08,0x6f,0x3b,0x0a,0x07,0x3b,0x0b,0x69,0x18,0x3b,0x0c,0x5b,0x00,0x6f,0x3b,0x0a,0x07,0x3b,0x0b,0x69,0x2a,0x3b,0x0c,0x5b,0x00,0x6f,0x3b,0x0a,0x07,0x3b,0x0b,0x69,0x00,0x3b,0x0c,0x5b,0x00))
  205(-1,bytes(0x04,0x08,0x6f,0x3a,0x13,0x52,0x50,0x47,0x3a,0x3a,0x4d,0x6f,0x76,0x65,0x52,0x6f,0x75,0x74,0x65,0x09,0x3a,0x0c,0x40,0x72,0x65,0x70,0x65,0x61,0x74,0x46,0x3a,0x0f,0x40,0x73,0x6b,0x69,0x70,0x70,0x61,0x62,0x6c,0x65,0x54,0x3a,0x0a,0x40,0x77,0x61,0x69,0x74,0x54,0x3a,0x0a,0x40,0x6c,0x69,0x73,0x74,0x5b,0x07,0x6f,0x3a,0x15,0x52,0x50,0x47,0x3a,0x3a,0x4d,0x6f,0x76,0x65,0x43,0x6f,0x6d,0x6d,0x61,0x6e,0x64,0x07,0x3a,0x0a,0x40,0x63,0x6f,0x64,0x65,0x69,0x11,0x3a,0x10,0x40,0x70,0x61,0x72,0x61,0x6d,0x65,0x74,0x65,0x72,0x73,0x5b,0x00,0x6f,0x3b,0x0a,0x07,0x3b,0x0b,0x69,0x00,0x3b,0x0c,0x5b,0x00))
  250(bytes(0x04,0x08,0x6f,0x3a,0x0c,0x52,0x50,0x47,0x3a,0x3a,0x53,0x45,0x08,0x3a,0x0a,0x40,0x6e,0x61,0x6d,0x65,0x49,0x22,0x09,0x4d,0x6f,0x76,0x65,0x06,0x3a,0x06,0x45,0x54,0x3a,0x0b,0x40,0x70,0x69,0x74,0x63,0x68,0x69,0x69,0x3a,0x0c,0x40,0x76,0x6f,0x6c,0x75,0x6d,0x65,0x69,0x55))
  TeleportPlayer(0,477,11,21,0,0)
  0()



EVENT   79
 PAGE   1
  If(1,1028,0,7,2)
   ShowMessageFace("",0,0,2,1)
   ShowMessage("\\n<Woman>A lot of the soldiers from the last King's era have been discharged. The rumor going round is that they gather at the blacksmith's and are considering rebellion.")
   ShowMessageFace("",0,0,2,2)
   ShowMessage("\\n<Woman>The Queen is being strange... but I don't think anyone wants a revolt. Surely?")
   0()
  EndIf()
  If(1,1028,0,8,0)
   ShowMessageFace("",0,0,2,3)
   ShowMessage("\\n<Woman>The Queen's original retainers have returned now that she's back to her normal self. Since there was the possiblity of a revolt occuring, I'm glad everything has calmed down now.")
   0()
  EndIf()
  0()



EVENT   69
 PAGE   1
  ShowMessageFace("",0,0,2,1)
  ShowMessage("\\n<Dog>Woof! Woof!")
  355("actor_label_jump")
  EndEventProcessing()
  DefineLabel("60")
  ShowMessageFace("dog_fc1",4,0,2,2)
  ShowMessage("\\n<Pochi>Awoo, Awooo!")
  EndEventProcessing()
  0()



EVENT   70
 PAGE   1
  ShowMessageFace("datyou_fc1",3,0,2,1)
  ShowMessage("\\n<Miu>One two, one two. Let's do laps all day today as wel!")
  355("actor_label_jump")
  EndEventProcessing()
  DefineLabel("62")
  ShowMessageFace("gob_fc1",0,0,2,2)
  ShowMessage("\\n<Gob>I won't lose!")
  EndEventProcessing()
  DefineLabel("101")
  ShowMessageFace("cent2_fc1",0,0,2,3)
  ShowMessage("\\n<Lihitinu>You still think you can win against my legs?")
  EndEventProcessing()
  DefineLabel("148")
  ShowMessageFace("datyou_fc1",3,0,2,4)
  ShowMessage("\\n<Miu>Let's just do our best to train together!")
  EndEventProcessing()
  0()



EVENT   63
 PAGE   1
  If(1,1028,0,7,2)
   ShowMessageFace("",0,0,2,1)
   ShowMessage("\\n<Traveling Merchant>Ever since the Queen ascended to the throne, the trade routes haven't been protected very well. Both in physical and economical terms.")
   ShowMessageFace("",0,0,2,2)
   ShowMessage("\\n<Traveling Merchant>Right now, the Queen doesn't care about our economy. Only sex. At this rate the country is going to go bankrupt.")
   EndEventProcessing()
   0()
  EndIf()
  If(1,1028,0,8,0)
   ShowMessageFace("",0,0,2,3)
   ShowMessage("\\n<Traveling Merchant>A large-scale comprehensive trading policy is being implemented. The country's economy should quickly recover now that the Queens sanity has returned.")
   EndEventProcessing()
   0()
  EndIf()
  0()



EVENT   80
 PAGE   1
  ShowMessageFace("",0,0,2,1)
  ShowMessage("\\n<Youth>It must be hard for you to get around with how large Sabasa is. Now then, tell me where you want to go.")
  355("unlimited_choices(11, [\"Inn\",")
  655("\"Weapon - Armor - Accessory Shop\",")
  655("\"Item Shop\",\"Blacksmith\",")
  655("\"Church\",\"Outside\",\"Nowhere\"])")
  If(1,11,0,0,0)
   TeleportPlayer(0,476,60,71,0,0)
   EndEventProcessing()
   0()
  EndIf()
  If(1,11,0,1,0)
   TeleportPlayer(0,476,47,70,0,0)
   EndEventProcessing()
   0()
  EndIf()
  If(1,11,0,2,0)
   TeleportPlayer(0,476,54,17,0,0)
   EndEventProcessing()
   0()
  EndIf()
  If(1,11,0,3,0)
   TeleportPlayer(0,476,37,19,0,0)
   EndEventProcessing()
   0()
  EndIf()
  If(1,11,0,4,0)
   TeleportPlayer(0,476,65,44,0,0)
   EndEventProcessing()
   0()
  EndIf()
  If(1,11,0,5,0)
   TeleportPlayer(0,476,44,82,2,0)
   EndEventProcessing()
   0()
  EndIf()
  If(1,11,0,6,0)
   EndEventProcessing()
   0()
  EndIf()
  0()



EVENT   81
 PAGE   1
  // condition: switch 1102 is ON
  // condition: switch 1103 is ON
  241(bytes(0x04,0x08,0x6f,0x3a,0x0d,0x52,0x50,0x47,0x3a,0x3a,0x42,0x47,0x4d,0x08,0x3a,0x0a,0x40,0x6e,0x61,0x6d,0x65,0x49,0x22,0x13,0x73,0x63,0x65,0x6e,0x65,0x5f,0x6f,0x64,0x61,0x79,0x61,0x6b,0x61,0x31,0x06,0x3a,0x06,0x45,0x54,0x3a,0x0c,0x40,0x76,0x6f,0x6c,0x75,0x6d,0x65,0x69,0x69,0x3a,0x0b,0x40,0x70,0x69,0x74,0x63,0x68,0x69,0x69))
  ShowMessageFace("kamuro_fc1",0,0,2,1)
  ShowMessage("\\n<Kamuro>Kitsu-senpai, why is the desert hot?")
  ShowMessageFace("youko_fc1",0,0,2,2)
  ShowMessage("\\n<Kitsu>Umm, well, you see... ...It's because the Desert God doesn't like the cold.")
  ShowMessageFace("kamuro_fc1",0,0,2,3)
  ShowMessage("\\n<Kamuro>As expected of you Kitsu-senpai, you know everything")
  241(bytes(0x04,0x08,0x6f,0x3a,0x0d,0x52,0x50,0x47,0x3a,0x3a,0x42,0x47,0x4d,0x08,0x3a,0x0a,0x40,0x6e,0x61,0x6d,0x65,0x49,0x22,0x0a,0x6d,0x75,0x72,0x61,0x36,0x06,0x3a,0x06,0x45,0x54,0x3a,0x0c,0x40,0x76,0x6f,0x6c,0x75,0x6d,0x65,0x69,0x69,0x3a,0x0b,0x40,0x70,0x69,0x74,0x63,0x68,0x69,0x69))
  0()
 PAGE   2
  // condition: party contains actor #102
  0()
 PAGE   3
  // condition: party contains actor #103
  0()



EVENT   82
 PAGE   1
  // condition: switch 1102 is ON
  // condition: switch 1103 is ON
  241(bytes(0x04,0x08,0x6f,0x3a,0x0d,0x52,0x50,0x47,0x3a,0x3a,0x42,0x47,0x4d,0x08,0x3a,0x0a,0x40,0x6e,0x61,0x6d,0x65,0x49,0x22,0x13,0x73,0x63,0x65,0x6e,0x65,0x5f,0x6f,0x64,0x61,0x79,0x61,0x6b,0x61,0x31,0x06,0x3a,0x06,0x45,0x54,0x3a,0x0c,0x40,0x76,0x6f,0x6c,0x75,0x6d,0x65,0x69,0x69,0x3a,0x0b,0x40,0x70,0x69,0x74,0x63,0x68,0x69,0x69))
  ShowMessageFace("kamuro_fc1",0,0,2,1)
  ShowMessage("\\n<Kamuro>Kitsune-senpai, why is the desert so hot?")
  ShowMessageFace("youko_fc1",0,0,2,2)
  ShowMessage("\\n<Kitsu>Umm, well, you see... ...It's because the Desert God doesn't like the cold.")
  ShowMessageFace("kamuro_fc1",0,0,2,3)
  ShowMessage("\\n<Kamuro>As expected of you Kitsu-senpai, you know everything!")
  241(bytes(0x04,0x08,0x6f,0x3a,0x0d,0x52,0x50,0x47,0x3a,0x3a,0x42,0x47,0x4d,0x08,0x3a,0x0a,0x40,0x6e,0x61,0x6d,0x65,0x49,0x22,0x0a,0x6d,0x75,0x72,0x61,0x36,0x06,0x3a,0x06,0x45,0x54,0x3a,0x0c,0x40,0x76,0x6f,0x6c,0x75,0x6d,0x65,0x69,0x69,0x3a,0x0b,0x40,0x70,0x69,0x74,0x63,0x68,0x69,0x69))
  0()
 PAGE   2
  // condition: party contains actor #102
  0()
 PAGE   3
  // condition: party contains actor #103
  0()



EVENT   83
 PAGE   1
  ShowMessageFace("dog_fc1",0,0,2,1)
  ShowMessage("\\n<Dog Girl>Woof! Woof!")
  If(4,60,0)
   ShowMessageFace("dog_fc1",2,0,2,2)
   ShowMessage("\\n<Pochi>Even in the land of the boiling sand, there are my domesticated sisters. Perhaps, they pride themselves in walking alongside humans?")
   ShowMessageFace("dog_fc1",4,0,2,3)
   ShowMessage("\\n<Pochi>...Heck, aren't you feeling hot?")
   If(2,"A",1)
    ChangeSelfSwitch("A",0)
    ChangeVariable(1036,1036,1,0,1)
    If(1,1036,0,9,1)
     RunCommonEvent(311)
     0()
    Else()
     0()
    EndIf()
    0()
   EndIf()
   0()
  EndIf()
  0()



EVENT   84
 PAGE   1
  // condition: switch 1080 is ON
  ShowMessageFace("orc_fc1",1,0,2,1)
  ShowMessage("\\n<Hip>Oink! It's an Orc raid!")
  If(1,1028,0,7,2)
   ShowMessageFace("",0,0,2,2)
   ShowMessage("\\n<Guard>Hyaa! It's an monster attack! I'll do anything! Please spare my life!")
   ShowMessageFace("orc_fc1",0,0,2,3)
   ShowMessage("\\n<Hip>They're so cowardly, it suprises even an orc. Don't you think you should show some guts here?")
   EndEventProcessing()
   0()
  EndIf()
  If(1,1028,0,8,0)
   ShowMessageFace("",0,0,2,4)
   ShowMessage("\\n<Guard>We soldiers of Sabasa won't yield to violence. If death is your wish, I shall grant it.")
   ShowMessageFace("orc_fc1",2,0,2,5)
   ShowMessage("\\n<Hip>You have sand on your boots. Want me to lick them clean?")
   EndEventProcessing()
   0()
  EndIf()
  0()
 PAGE   2
  // condition: party contains actor #80
  0()



EVENT   85
 PAGE   1
  // condition: switch 1540 is ON
  241(bytes(0x04,0x08,0x6f,0x3a,0x0d,0x52,0x50,0x47,0x3a,0x3a,0x42,0x47,0x4d,0x08,0x3a,0x0a,0x40,0x6e,0x61,0x6d,0x65,0x49,0x22,0x0a,0x61,0x6d,0x69,0x72,0x61,0x06,0x3a,0x06,0x45,0x54,0x3a,0x0c,0x40,0x76,0x6f,0x6c,0x75,0x6d,0x65,0x69,0x69,0x3a,0x0b,0x40,0x70,0x69,0x74,0x63,0x68,0x69,0x69))
  If(2,"A",1)
   ChangeSelfSwitch("A",0)
   RunCommonEvent(322)
   0()
  Else()
   ShowMessageFace("amira_fc1",0,0,2,1)
   ShowMessage("\\n<Amira>You've already found me here. Keep searching for me...")
   0()
  EndIf()
  241(bytes(0x04,0x08,0x6f,0x3a,0x0d,0x52,0x50,0x47,0x3a,0x3a,0x42,0x47,0x4d,0x08,0x3a,0x0a,0x40,0x6e,0x61,0x6d,0x65,0x49,0x22,0x0a,0x6d,0x75,0x72,0x61,0x36,0x06,0x3a,0x06,0x45,0x54,0x3a,0x0c,0x40,0x76,0x6f,0x6c,0x75,0x6d,0x65,0x69,0x69,0x3a,0x0b,0x40,0x70,0x69,0x74,0x63,0x68,0x69,0x69))
  EndEventProcessing()
  0()
 PAGE   2
  // condition: party contains actor #540
  0()



EVENT   27
 PAGE   1
  If(1,815,0,2,1)
   If(0,1558,1)
    ShowMessageFace("mob_uranai1_fc1",0,0,2,1)
    ShowMessage("\\n<Naia>You are responsible for the fate of this world... That's what my fortune-telling told me. And thus, my fate is to help you.")
    ShowChoices(strings("Let her join","Decline for now"),0)
    IfPlayerPicksChoice(0,null)
     ShowMessageFace("mob_uranai1_fc1",1,0,2,2)
     ShowMessage("\\n<Naia>Well then, let's go together.")
     PictureClear(5)
     205(0,bytes(0x04,0x08,0x6f,0x3a,0x13,0x52,0x50,0x47,0x3a,0x3a,0x4d,0x6f,0x76,0x65,0x52,0x6f,0x75,0x74,0x65,0x09,0x3a,0x0c,0x40,0x72,0x65,0x70,0x65,0x61,0x74,0x46,0x3a,0x0f,0x40,0x73,0x6b,0x69,0x70,0x70,0x61,0x62,0x6c,0x65,0x46,0x3a,0x0a,0x40,0x77,0x61,0x69,0x74,0x54,0x3a,0x0a,0x40,0x6c,0x69,0x73,0x74,0x5b,0x09,0x6f,0x3a,0x15,0x52,0x50,0x47,0x3a,0x3a,0x4d,0x6f,0x76,0x65,0x43,0x6f,0x6d,0x6d,0x61,0x6e,0x64,0x07,0x3a,0x0a,0x40,0x63,0x6f,0x64,0x65,0x69,0x2a,0x3a,0x10,0x40,0x70,0x61,0x72,0x61,0x6d,0x65,0x74,0x65,0x72,0x73,0x5b,0x00,0x6f,0x3b,0x0a,0x07,0x3b,0x0b,0x69,0x0f,0x3b,0x0c,0x5b,0x00,0x6f,0x3b,0x0a,0x07,0x3b,0x0b,0x69,0x2c,0x3b,0x0c,0x5b,0x00,0x6f,0x3b,0x0a,0x07,0x3b,0x0b,0x69,0x00,0x3b,0x0c,0x5b,0x00))
     355("add_actor_ex(558)")
     249(bytes(0x04,0x08,0x6f,0x3a,0x0c,0x52,0x50,0x47,0x3a,0x3a,0x4d,0x45,0x08,0x3a,0x0a,0x40,0x6e,0x61,0x6d,0x65,0x49,0x22,0x0c,0x66,0x61,0x6e,0x66,0x61,0x6c,0x65,0x06,0x3a,0x06,0x45,0x54,0x3a,0x0b,0x40,0x70,0x69,0x74,0x63,0x68,0x69,0x69,0x3a,0x0c,0x40,0x76,0x6f,0x6c,0x75,0x6d,0x65,0x69,0x69))
     ShowMessageFace("",0,0,2,3)
     ShowMessage("Naia joined the party!")
     Wait(60)
     EndEventProcessing()
     0()
    IfPlayerPicksChoice(1,null)
     ShowMessageFace("mob_uranai1_fc1",0,0,2,4)
     ShowMessage("\\n<Naia>Is that so? So it was uncalled of me to propose such a thing.")
     0()
    404()
    0()
   EndIf()
   0()
  EndIf()
  RunCommonEvent(7141)
  0()
 PAGE   2
  // condition: party contains actor #558
  0()



EVENT   39
 PAGE   1
  ShowMessageFace("",0,0,2,1)
  ShowMessage("\\n<Saleswoman>Welcome! We offer a wide variety of specialty's♪.")
  355("actor_label_jump")
  JumpToLabel("店")
  DefineLabel("5")
  ShowMessageFace("alice_fc5",1,0,2,2)
  ShowMessage("\\n<Alice>Ohh, they're selling Jam! It can't be better than Tamamo Jam, can it?")
  ShowMessageFace("alice_fc5",0,0,2,3)
  ShowMessage("\\n<Alice>By the way,  Tamamo Jam is the jam Tamamo makes. It's not a jam made out of Tamamo.")
  ShowMessageFace("alice_fc5",3,0,2,4)
  ShowMessage("\\n<Alice>Although, it's not like I never thought of making one out of Tamamo...")
  JumpToLabel("店")
  DefineLabel("26")
  ShowMessageFace("iriasu_fc4",2,0,2,5)
  ShowMessage("\\n<Ilias>Grapes, huh? Hehe, Eden would sometimes... Nevermind.")
  JumpToLabel("店")
  DefineLabel("84")
  ShowMessageFace("hapy_bc_fc1",3,0,2,6)
  ShowMessage("\\n<Pina>Pii! They're selling bananas here too.")
  ShowMessageFace("hapy_bc_fc1",6,0,2,7)
  ShowMessage("\\n<Pii>Hey, could you buy some♪?")
  EndEventProcessing()
  DefineLabel("148")
  ShowMessageFace("datyou_fc1",3,0,2,8)
  ShowMessage("\\n<Miu>Let's get coffee. If we do, we'll be able to run across the desert for longer.")
  JumpToLabel("店")
  DefineLabel("店")
  Shop(0,303,0,0,false)
  605(0,304,0,0)
  605(0,305,0,0)
  605(0,337,0,0)
  605(0,343,0,0)
  605(0,427,0,0)
  0()



EVENT   67
 PAGE   1
  ShowMessageFace("",0,0,2,1)
  ShowMessage("\\n<Man>Only recently has the Gnome festival been revived. Ever since the Renaissance these kinds of local beliefs have become popular.")
  ShowMessageFace("",0,0,2,2)
  ShowMessage("\\n<Man>In the city the church is still strong. Maybe the positions will reverse one day?")
  ShowMessageFace("",0,0,2,3)
  ShowMessage("\\n<Man>Well... Rather than pray in a depressing church, it's better to pray to spirits by eating, singing, dancing and making noise.")
  355("actor_label_jump")
  EndEventProcessing()
  DefineLabel("26")
  ShowMessageFace("iriasu_fc4",2,0,2,4)
  ShowMessage("\\n<Ilias>What? People's hearts will be poisoned by this heresy.")
  EndEventProcessing()
  DefineLabel("12")
  ShowMessageFace("sylph_fc1",0,0,2,5)
  ShowMessage("\\n<Sylph>It's lots of fun♪.")
  EndEventProcessing()
  DefineLabel("13")
  ShowMessageFace("gnome_fc1",0,0,2,6)
  ShowMessage("\\n<Gnome>......")
  EndEventProcessing()
  0()



EVENT   73
 PAGE   1
  ShowMessageFace("",0,0,2,1)
  ShowMessage("\\n<Old Man>Mmm, there's a crocodile girl. She's not too hungry so she won't harm people, but I still wouldn't get too close to her.")
  355("actor_label_jump")
  EndEventProcessing()
  DefineLabel("26")
  ShowMessageFace("iriasu_fc4",2,0,2,2)
  ShowMessage("\\n<Ilias>I recently stopped being surprised by the looks of monsters... Am I losing my edge?")
  ShowMessageFace("iriasu_fc4",2,0,2,3)
  ShowMessage("\\n<Ilias>My appearance is certainly more round than before, but that's not what I mean.")
  EndEventProcessing()
  DefineLabel("525")
  ShowMessageFace("sonia_fc2",3,0,2,4)
  ShowMessage("\\n<Sonya>This place is amazing! They have crocodiles in the middle of the city!")
  EndEventProcessing()
  0()
